"libs\wave\src\instantiate_predef_macros.cpp" -Fo"bin.v2\libs\wave\build\msvc-12.0\dbg\thrd-mlt\instantiate_predef_macros.obj"    -TP /Z7 /Od /Ob0 /W3 /GR /MDd /Zc:forScope /Zc:wchar_t /wd4675 /EHs -c 
-DBOOST_ALL_DYN_LINK=1 
-DBOOST_ALL_NO_LIB=1 
-D_CRT_SECURE_NO_DEPRECATE 
-D_SCL_SECURE_NO_DEPRECATE 
"-I."