"libs\test\src\unit_test_log.cpp" -Fo"bin.v2\libs\test\build\msvc-12.0\rls\async-excpt-on\thrd-mlt\unit_test_log.obj"    -TP /O2 /Ob2 /W4 /GR /MD /Zc:forScope /Zc:wchar_t /wd4675 /EHa -wd4275 -wd4671 -wd4673 -c 
-DBOOST_ALL_NO_LIB=1 
-DBOOST_TEST_DYN_LINK=1 
-DNDEBUG 
"-I."