"libs\date_time\src\gregorian\greg_month.cpp" -Fo"bin.v2\libs\date_time\build\msvc-12.0\rls\lnk-sttc\rntm-lnk-sttc\thrd-mlt\gregorian\greg_month.obj"    -TP /O2 /Ob2 /W3 /GR /MT /Zc:forScope /Zc:wchar_t /wd4675 /EHs -c 
-DBOOST_ALL_NO_LIB=1 
-DBOOST_DATE_TIME_STATIC_LINK 
-DDATE_TIME_INLINE 
-DNDEBUG 
"-I."