"libs\regex\build\..\src\w32_regex_traits.cpp" -Fo"bin.v2\libs\regex\build\msvc-12.0\rls\lnk-sttc\thrd-mlt\w32_regex_traits.obj"    -TP /O2 /Ob2 /W4 /GR /MD /Zc:forScope /Zc:wchar_t /wd4675 /EHs -c 
-DBOOST_ALL_NO_LIB=1 
-DNDEBUG 
"-I."