"libs\signals\src\signal_base.cpp" -Fo"bin.v2\libs\signals\build\msvc-12.0\rls\lnk-sttc\thrd-mlt\signal_base.obj"    -TP /O2 /Ob2 /W3 /GR /MD /Zc:forScope /Zc:wchar_t /wd4675 /EHs -c 
-DBOOST_ALL_NO_LIB=1 
-DBOOST_SIGNALS_NO_LIB=1 
-DNDEBUG 
"-I."