"libs\timer\src\cpu_timer.cpp" -Fo"bin.v2\libs\timer\build\msvc-12.0\rls\thrd-mlt\cpu_timer.obj"    -TP /O2 /Ob2 /W3 /GR /MD /Zc:forScope /Zc:wchar_t /wd4675 /EHs -c 
-DBOOST_ALL_NO_LIB=1 
-DBOOST_CHRONO_DYN_LINK=1 
-DBOOST_SYSTEM_DYN_LINK=1 
-DBOOST_SYSTEM_NO_DEPRECATED 
-DBOOST_TIMER_DYN_LINK=1 
-DNDEBUG 
"-I."