"libs\filesystem\src\path.cpp" -Fo"bin.v2\libs\filesystem\build\msvc-12.0\rls\lnk-sttc\rntm-lnk-sttc\thrd-mlt\path.obj"    -TP /O2 /Ob2 /W3 /GR /MT /Zc:forScope /Zc:wchar_t /wd4675 /EHs -c 
-DBOOST_ALL_NO_LIB=1 
-DBOOST_FILESYSTEM_STATIC_LINK=1 
-DBOOST_SYSTEM_STATIC_LINK=1 
-DNDEBUG 
"-I."