"libs\program_options\src\cmdline.cpp" -Fo"bin.v2\libs\program_options\build\msvc-14.0\release\link-static\runtime-link-static\threading-multi\cmdline.obj"    -TP /O2 /Ob2 /W3 /GR /MT /Zc:forScope /Zc:wchar_t /wd4675 /EHs -c 
-DBOOST_ALL_NO_LIB=1 
-DNDEBUG 
"-I."