"libs\serialization\src\basic_iserializer.cpp" -Fo"bin.v2\libs\serialization\build\msvc-12.0\rls\thrd-mlt\basic_iserializer.obj"    -TP /O2 /Ob2 /W3 /GR /MD /Zc:forScope /Zc:wchar_t /wd4675 /EHs /Gy -c 
-DBOOST_ALL_NO_LIB=1 
-DBOOST_SERIALIZATION_DYN_LINK=1 
-DNDEBUG 
"-I."