"libs\wave\src\token_ids.cpp" -Fo"bin.v2\libs\wave\build\msvc-12.0\rls\thrd-mlt\token_ids.obj"    -TP /O2 /Ob2 /W3 /GR /MD /Zc:forScope /Zc:wchar_t /wd4675 /EHs -c 
-DBOOST_ALL_DYN_LINK=1 
-DBOOST_ALL_NO_LIB=1 
-DNDEBUG 
-D_CRT_SECURE_NO_DEPRECATE 
-D_SCL_SECURE_NO_DEPRECATE 
"-I."