"libs\wave\src\instantiate_re2c_lexer.cpp" -Fo"bin.v2\libs\wave\build\msvc-12.0\rls\lnk-sttc\rntm-lnk-sttc\thrd-mlt\instantiate_re2c_lexer.obj"    -TP /O2 /Ob2 /W3 /GR /MT /Zc:forScope /Zc:wchar_t /wd4675 /EHs -c 
-DBOOST_ALL_NO_LIB=1 
-DBOOST_THREAD_USE_LIB=1 
-DNDEBUG 
-D_CRT_SECURE_NO_DEPRECATE 
-D_SCL_SECURE_NO_DEPRECATE 
"-I."