"libs\test\src\debug.cpp" -Fo"bin.v2\libs\test\build\msvc-12.0\rls\async-excpt-on\lnk-sttc\rntm-lnk-sttc\thrd-mlt\debug.obj"    -TP /O2 /Ob2 /W4 /GR /MT /Zc:forScope /Zc:wchar_t /wd4675 /EHa -wd4671 -wd4673 -c 
-DBOOST_ALL_NO_LIB=1 
-DNDEBUG 
"-I."