
"bin.v2\libs\signals\build\msvc-14.0\release\link-static\runtime-link-static\threading-multi\trackable.obj" 
"bin.v2\libs\signals\build\msvc-14.0\release\link-static\runtime-link-static\threading-multi\connection.obj" 
"bin.v2\libs\signals\build\msvc-14.0\release\link-static\runtime-link-static\threading-multi\named_slot_map.obj" 
"bin.v2\libs\signals\build\msvc-14.0\release\link-static\runtime-link-static\threading-multi\signal_base.obj" 
"bin.v2\libs\signals\build\msvc-14.0\release\link-static\runtime-link-static\threading-multi\slot.obj"   