"libs\signals\src\named_slot_map.cpp" -Fo"bin.v2\libs\signals\build\msvc-14.0\release\link-static\runtime-link-static\threading-multi\named_slot_map.obj"    -TP /O2 /Ob2 /W3 /GR /MT /Zc:forScope /Zc:wchar_t /wd4675 /EHs -c 
-DBOOST_ALL_NO_LIB=1 
-DBOOST_SIGNALS_NO_LIB=1 
-DNDEBUG 
"-I."