"libs\locale\src\shared\format.cpp" -Fo"bin.v2\libs\locale\build\msvc-12.0\dbg\lnk-sttc\rntm-lnk-sttc\thrd-mlt\shared\format.obj"    -TP /Z7 /Od /Ob0 /W3 /GR /MTd /Zc:forScope /Zc:wchar_t /wd4675 /EHs -c 
-DBOOST_ALL_NO_LIB=1 
-DBOOST_LOCALE_NO_POSIX_BACKEND=1 
-DBOOST_SYSTEM_STATIC_LINK=1 
-DBOOST_THREAD_NO_LIB=1 
"-I."