"libs\iostreams\src\mapped_file.cpp" -Fo"bin.v2\libs\iostreams\build\msvc-12.0\rls\lnk-sttc\rntm-lnk-sttc\thrd-mlt\mapped_file.obj"    -TP /O2 /Ob2 /W3 /GR /MT /Zc:forScope /Zc:wchar_t /wd4675 /EHs -c 
-DBOOST_ALL_NO_LIB=1 
-DBOOST_IOSTREAMS_USE_DEPRECATED 
-DNDEBUG 
"-I."