
"bin.v2\libs\serialization\build\msvc-12.0\rls\lnk-sttc\rntm-lnk-sttc\thrd-mlt\basic_text_wiprimitive.obj" 
"bin.v2\libs\serialization\build\msvc-12.0\rls\lnk-sttc\rntm-lnk-sttc\thrd-mlt\basic_text_woprimitive.obj" 
"bin.v2\libs\serialization\build\msvc-12.0\rls\lnk-sttc\rntm-lnk-sttc\thrd-mlt\text_wiarchive.obj" 
"bin.v2\libs\serialization\build\msvc-12.0\rls\lnk-sttc\rntm-lnk-sttc\thrd-mlt\text_woarchive.obj" 
"bin.v2\libs\serialization\build\msvc-12.0\rls\lnk-sttc\rntm-lnk-sttc\thrd-mlt\utf8_codecvt_facet.obj" 
"bin.v2\libs\serialization\build\msvc-12.0\rls\lnk-sttc\rntm-lnk-sttc\thrd-mlt\xml_wgrammar.obj" 
"bin.v2\libs\serialization\build\msvc-12.0\rls\lnk-sttc\rntm-lnk-sttc\thrd-mlt\xml_wiarchive.obj" 
"bin.v2\libs\serialization\build\msvc-12.0\rls\lnk-sttc\rntm-lnk-sttc\thrd-mlt\xml_woarchive.obj" 
"bin.v2\libs\serialization\build\msvc-12.0\rls\lnk-sttc\rntm-lnk-sttc\thrd-mlt\codecvt_null.obj"   