"libs\serialization\src\xml_grammar.cpp" -Fo"bin.v2\libs\serialization\build\msvc-12.0\rls\lnk-sttc\rntm-lnk-sttc\thrd-mlt\xml_grammar.obj"    -TP /O2 /Ob2 /W3 /GR /MT /Zc:forScope /Zc:wchar_t /wd4675 /EHs /Gy -c 
-DBOOST_ALL_NO_LIB=1 
-DNDEBUG 
"-I."