"libs\math\build\..\src\tr1\round.cpp" -Fo"bin.v2\libs\math\build\msvc-12.0\rls\lnk-sttc\thrd-mlt\round.obj"  -Yu"pch.hpp" -Fp"bin.v2\libs\math\build\msvc-12.0\rls\lnk-sttc\thrd-mlt\pch.pch" -TP /O2 /Ob2 /W3 /GR /MD /Zc:forScope /Zc:wchar_t /wd4675 /EHs -c 
-DBOOST_ALL_NO_LIB=1 
-DBOOST_BUILD_PCH_ENABLED 
-DNDEBUG 
"-I." 
"-Ilibs\math\src\tr1"