"libs\container\src\alloc_lib.c" -Fo"bin.v2\libs\container\build\msvc-12.0\rls\lnk-sttc\rntm-lnk-sttc\thrd-mlt\alloc_lib.obj"    -TC /O2 /Ob2 /W3 /GR /MT /Zc:forScope /Zc:wchar_t -c 
-DBOOST_ALL_NO_LIB=1 
-DBOOST_CONTAINER_STATIC_LINK=1 
-DNDEBUG 
"-I."