"libs\signals\src\trackable.cpp" -Fo"bin.v2\libs\signals\build\msvc-14.0\release\link-static\runtime-link-static\trackable.obj"    -TP /O2 /Ob2 /W3 /GR /Zc:forScope /Zc:wchar_t /MT /wd4675 /EHs -c 
-DBOOST_ALL_NO_LIB=1 
-DBOOST_SIGNALS_NO_LIB=1 
-DNDEBUG 
"-I."