"libs\math\build\..\src\tr1\trunc.cpp" -Fo"bin.v2\libs\math\build\msvc-12.0\rls\lnk-sttc\rntm-lnk-sttc\trunc.obj"  -Yu"pch.hpp" -Fp"bin.v2\libs\math\build\msvc-12.0\rls\lnk-sttc\rntm-lnk-sttc\pch.pch" -TP /O2 /Ob2 /W3 /GR /Zc:forScope /Zc:wchar_t /MT /wd4675 /EHs -c 
-DBOOST_ALL_NO_LIB=1 
-DBOOST_BUILD_PCH_ENABLED 
-DNDEBUG 
"-I." 
"-Ilibs\math\src\tr1"