"libs\wave\src\instantiate_cpp_exprgrammar.cpp" -Fo"bin.v2\libs\wave\build\msvc-12.0\dbg\lnk-sttc\rntm-lnk-sttc\instantiate_cpp_exprgrammar.obj"    -TP /Z7 /Od /Ob0 /W3 /GR /Zc:forScope /Zc:wchar_t /MTd /wd4675 /EHs -c 
-DBOOST_ALL_NO_LIB=1 
-DBOOST_THREAD_USE_LIB=1 
-D_CRT_SECURE_NO_DEPRECATE 
-D_SCL_SECURE_NO_DEPRECATE 
"-I."