"libs\signals\src\named_slot_map.cpp" -Fo"bin.v2\libs\signals\build\msvc-12.0\dbg\lnk-sttc\rntm-lnk-sttc\named_slot_map.obj"    -TP /Z7 /Od /Ob0 /W3 /GR /Zc:forScope /Zc:wchar_t /MTd /wd4675 /EHs -c 
-DBOOST_ALL_NO_LIB=1 
-DBOOST_SIGNALS_NO_LIB=1 
"-I."