"libs\locale\src\win32\win_backend.cpp" -Fo"bin.v2\libs\locale\build\msvc-12.0\rls\lnk-sttc\rntm-lnk-sttc\thrd-mlt\win32\win_backend.obj"    -TP /O2 /Ob2 /W3 /GR /MT /Zc:forScope /Zc:wchar_t /wd4675 /EHs -c 
-DBOOST_ALL_NO_LIB=1 
-DBOOST_LOCALE_NO_POSIX_BACKEND=1 
-DBOOST_SYSTEM_STATIC_LINK=1 
-DBOOST_THREAD_NO_LIB=1 
-DNDEBUG 
"-I."