
"bin.v2\libs\coroutine\build\msvc-12.0\rls\lnk-sttc\thrd-mlt\detail\coroutine_context.obj" 
"bin.v2\libs\coroutine\build\msvc-12.0\rls\lnk-sttc\thrd-mlt\exceptions.obj" 
"bin.v2\libs\coroutine\build\msvc-12.0\rls\lnk-sttc\thrd-mlt\windows\stack_traits.obj"   