"libs\serialization\src\text_oarchive.cpp" -Fo"bin.v2\libs\serialization\build\msvc-12.0\dbg\thrd-mlt\text_oarchive.obj"    -TP /Z7 /Od /Ob0 /W3 /GR /MDd /Zc:forScope /Zc:wchar_t /wd4675 /EHs /Gy -c 
-DBOOST_ALL_NO_LIB=1 
-DBOOST_SERIALIZATION_DYN_LINK=1 
"-I."