"libs\locale\src\win32\numeric.cpp" -Fo"bin.v2\libs\locale\build\msvc-12.0\rls\thrd-mlt\win32\numeric.obj"    -TP /O2 /Ob2 /W3 /GR /MD /Zc:forScope /Zc:wchar_t /wd4675 /EHs -c 
-DBOOST_ALL_NO_LIB=1 
-DBOOST_LOCALE_DYN_LINK=1 
-DBOOST_LOCALE_NO_POSIX_BACKEND=1 
-DBOOST_SYSTEM_DYN_LINK=1 
-DBOOST_THREAD_NO_LIB=1 
-DNDEBUG 
"-I."