"libs\timer\src\cpu_timer.cpp" -Fo"bin.v2\libs\timer\build\msvc-12.0\dbg\lnk-sttc\rntm-lnk-sttc\thrd-mlt\cpu_timer.obj"    -TP /Z7 /Od /Ob0 /W3 /GR /MTd /Zc:forScope /Zc:wchar_t /wd4675 /EHs -c 
-DBOOST_ALL_NO_LIB=1 
-DBOOST_CHRONO_STATIC_LINK=1 
-DBOOST_SYSTEM_NO_DEPRECATED 
-DBOOST_SYSTEM_STATIC_LINK=1 
-DBOOST_TIMER_STATIC_LINK=1 
"-I."