
"bin.v2\libs\date_time\build\msvc-14.0\release\link-static\runtime-link-static\gregorian\greg_month.obj" 
"bin.v2\libs\date_time\build\msvc-14.0\release\link-static\runtime-link-static\gregorian\greg_weekday.obj" 
"bin.v2\libs\date_time\build\msvc-14.0\release\link-static\runtime-link-static\gregorian\date_generators.obj"   