"libs\math\build\..\src\tr1\cbrt.cpp" -Fo"bin.v2\libs\math\build\msvc-12.0\dbg\lnk-sttc\thrd-mlt\cbrt.obj"  -Yu"pch.hpp" -Fp"bin.v2\libs\math\build\msvc-12.0\dbg\lnk-sttc\thrd-mlt\pch.pch" -TP /Z7 /Od /Ob0 /W3 /GR /MDd /Zc:forScope /Zc:wchar_t /wd4675 /EHs -c 
-DBOOST_ALL_NO_LIB=1 
-DBOOST_BUILD_PCH_ENABLED 
"-I." 
"-Ilibs\math\src\tr1"