"libs\program_options\src\utf8_codecvt_facet.cpp" -Fo"bin.v2\libs\program_options\build\msvc-12.0\rls\lnk-sttc\rntm-lnk-sttc\utf8_codecvt_facet.obj"    -TP /O2 /Ob2 /W3 /GR /Zc:forScope /Zc:wchar_t /MT /wd4675 /EHs -c 
-DBOOST_ALL_NO_LIB=1 
-DNDEBUG 
"-I."