"libs\locale\src\shared\mo_lambda.cpp" -Fo"bin.v2\libs\locale\build\msvc-12.0\dbg\thrd-mlt\shared\mo_lambda.obj"    -TP /Z7 /Od /Ob0 /W3 /GR /MDd /Zc:forScope /Zc:wchar_t /wd4675 /EHs -c 
-DBOOST_ALL_NO_LIB=1 
-DBOOST_LOCALE_DYN_LINK=1 
-DBOOST_LOCALE_NO_POSIX_BACKEND=1 
-DBOOST_SYSTEM_DYN_LINK=1 
-DBOOST_THREAD_NO_LIB=1 
"-I."