"libs\filesystem\src\path_traits.cpp" -Fo"bin.v2\libs\filesystem\build\msvc-14.0\debug\link-static\runtime-link-static\path_traits.obj"    -TP /Z7 /Od /Ob0 /W3 /GR /Zc:forScope /Zc:wchar_t /MTd /wd4675 /EHs -c 
-DBOOST_ALL_NO_LIB=1 
-DBOOST_FILESYSTEM_STATIC_LINK=1 
-DBOOST_SYSTEM_STATIC_LINK=1 
"-I."