"libs\coroutine\src\windows\stack_traits.cpp" -Fo"bin.v2\libs\coroutine\build\msvc-12.0\dbg\thrd-mlt\windows\stack_traits.obj"    -TP /Z7 /Od /Ob0 /W3 /GR /MDd /Zc:forScope /Zc:wchar_t /wd4675 /EHs -c 
-DBOOST_ALL_NO_LIB=1 
-DBOOST_CHRONO_DYN_LINK=1 
-DBOOST_CONTEXT_DYN_LINK=1 
-DBOOST_COROUTINES_DYN_LINK=1 
-DBOOST_COROUTINES_SOURCE 
-DBOOST_SYSTEM_DYN_LINK=1 
-DBOOST_SYSTEM_NO_DEPRECATED 
-DBOOST_THREAD_BUILD_DLL=1 
-DBOOST_THREAD_USE_DLL=1 
"-I."