"libs\signals\src\signal_base.cpp" -Fo"bin.v2\libs\signals\build\msvc-14.0\debug\threading-multi\signal_base.obj"    -TP /Z7 /Od /Ob0 /W3 /GR /MDd /Zc:forScope /Zc:wchar_t /wd4675 /EHs -c 
-DBOOST_ALL_NO_LIB=1 
-DBOOST_SIGNALS_DYN_LINK=1 
-DBOOST_SIGNALS_NO_LIB=1 
"-I."