^G:\DEVELOPMENT\STORMLIB\SRC\FILESTREAM.CPP|G:\DEVELOPMENT\STORMLIB\SRC\SBASECOMMON.CPP|G:\DEVELOPMENT\STORMLIB\SRC\SBASEFILETABLE.CPP|G:\DEVELOPMENT\STORMLIB\SRC\SCOMPRESSION.CPP|G:\DEVELOPMENT\STORMLIB\SRC\SFILEADDFILE.CPP|G:\DEVELOPMENT\STORMLIB\SRC\SFILEATTRIBUTES.CPP|G:\DEVELOPMENT\STORMLIB\SRC\SFILECOMPACTARCHIVE.CPP|G:\DEVELOPMENT\STORMLIB\SRC\SFILECREATEARCHIVE.CPP|G:\DEVELOPMENT\STORMLIB\SRC\SFILEEXTRACTFILE.CPP|G:\DEVELOPMENT\STORMLIB\SRC\SFILEFINDFILE.CPP|G:\DEVELOPMENT\STORMLIB\SRC\SFILEGETFILEINFO.CPP|G:\DEVELOPMENT\STORMLIB\SRC\SFILELISTFILE.CPP|G:\DEVELOPMENT\STORMLIB\SRC\SFILEOPENARCHIVE.CPP|G:\DEVELOPMENT\STORMLIB\SRC\SFILEOPENFILEEX.CPP|G:\DEVELOPMENT\STORMLIB\SRC\SFILEPATCHARCHIVES.CPP|G:\DEVELOPMENT\STORMLIB\SRC\SFILEREADFILE.CPP|G:\DEVELOPMENT\STORMLIB\SRC\SFILEVERIFY.CPP
G:\DEVELOPMENT\STORMLIB\BIN\STORMLIB\WIN32\DEBUGAD\STORMLIBDAD.PCH
G:\DEVELOPMENT\STORMLIB\BIN\STORMLIB\WIN32\DEBUGAD\STORMLIB.PDB
G:\DEVELOPMENT\STORMLIB\BIN\STORMLIB\WIN32\DEBUGAD\FILESTREAM.OBJ
G:\DEVELOPMENT\STORMLIB\BIN\STORMLIB\WIN32\DEBUGAD\SBASECOMMON.OBJ
G:\DEVELOPMENT\STORMLIB\BIN\STORMLIB\WIN32\DEBUGAD\SBASEFILETABLE.OBJ
G:\DEVELOPMENT\STORMLIB\BIN\STORMLIB\WIN32\DEBUGAD\SCOMPRESSION.OBJ
G:\DEVELOPMENT\STORMLIB\BIN\STORMLIB\WIN32\DEBUGAD\SFILEADDFILE.OBJ
G:\DEVELOPMENT\STORMLIB\BIN\STORMLIB\WIN32\DEBUGAD\SFILEATTRIBUTES.OBJ
G:\DEVELOPMENT\STORMLIB\BIN\STORMLIB\WIN32\DEBUGAD\SFILECOMPACTARCHIVE.OBJ
G:\DEVELOPMENT\STORMLIB\BIN\STORMLIB\WIN32\DEBUGAD\SFILECREATEARCHIVE.OBJ
G:\DEVELOPMENT\STORMLIB\BIN\STORMLIB\WIN32\DEBUGAD\SFILEEXTRACTFILE.OBJ
G:\DEVELOPMENT\STORMLIB\BIN\STORMLIB\WIN32\DEBUGAD\SFILEFINDFILE.OBJ
G:\DEVELOPMENT\STORMLIB\BIN\STORMLIB\WIN32\DEBUGAD\SFILEGETFILEINFO.OBJ
G:\DEVELOPMENT\STORMLIB\BIN\STORMLIB\WIN32\DEBUGAD\SFILELISTFILE.OBJ
G:\DEVELOPMENT\STORMLIB\BIN\STORMLIB\WIN32\DEBUGAD\SFILEOPENARCHIVE.OBJ
G:\DEVELOPMENT\STORMLIB\BIN\STORMLIB\WIN32\DEBUGAD\SFILEOPENFILEEX.OBJ
G:\DEVELOPMENT\STORMLIB\BIN\STORMLIB\WIN32\DEBUGAD\SFILEPATCHARCHIVES.OBJ
G:\DEVELOPMENT\STORMLIB\BIN\STORMLIB\WIN32\DEBUGAD\SFILEREADFILE.OBJ
G:\DEVELOPMENT\STORMLIB\BIN\STORMLIB\WIN32\DEBUGAD\SFILEVERIFY.OBJ
^G:\DEVELOPMENT\STORMLIB\SRC\FILESTREAM.CPP
G:\DEVELOPMENT\STORMLIB\BIN\STORMLIB\WIN32\DEBUGAD\STORMLIB.PDB
^G:\DEVELOPMENT\STORMLIB\SRC\SBASECOMMON.CPP
G:\DEVELOPMENT\STORMLIB\BIN\STORMLIB\WIN32\DEBUGAD\STORMLIB.PDB
^G:\DEVELOPMENT\STORMLIB\SRC\SBASEFILETABLE.CPP
G:\DEVELOPMENT\STORMLIB\BIN\STORMLIB\WIN32\DEBUGAD\STORMLIB.PDB
^G:\DEVELOPMENT\STORMLIB\SRC\SCOMPRESSION.CPP
G:\DEVELOPMENT\STORMLIB\BIN\STORMLIB\WIN32\DEBUGAD\STORMLIB.PDB
^G:\DEVELOPMENT\STORMLIB\SRC\SFILEADDFILE.CPP
G:\DEVELOPMENT\STORMLIB\BIN\STORMLIB\WIN32\DEBUGAD\STORMLIB.PDB
^G:\DEVELOPMENT\STORMLIB\SRC\SFILEATTRIBUTES.CPP
G:\DEVELOPMENT\STORMLIB\BIN\STORMLIB\WIN32\DEBUGAD\STORMLIB.PDB
^G:\DEVELOPMENT\STORMLIB\SRC\SFILECOMPACTARCHIVE.CPP
G:\DEVELOPMENT\STORMLIB\BIN\STORMLIB\WIN32\DEBUGAD\STORMLIB.PDB
^G:\DEVELOPMENT\STORMLIB\SRC\SFILECREATEARCHIVE.CPP
G:\DEVELOPMENT\STORMLIB\BIN\STORMLIB\WIN32\DEBUGAD\STORMLIB.PDB
^G:\DEVELOPMENT\STORMLIB\SRC\SFILEEXTRACTFILE.CPP
G:\DEVELOPMENT\STORMLIB\BIN\STORMLIB\WIN32\DEBUGAD\STORMLIB.PDB
^G:\DEVELOPMENT\STORMLIB\SRC\SFILEFINDFILE.CPP
G:\DEVELOPMENT\STORMLIB\BIN\STORMLIB\WIN32\DEBUGAD\STORMLIB.PDB
^G:\DEVELOPMENT\STORMLIB\SRC\SFILEGETFILEINFO.CPP
G:\DEVELOPMENT\STORMLIB\BIN\STORMLIB\WIN32\DEBUGAD\STORMLIB.PDB
^G:\DEVELOPMENT\STORMLIB\SRC\SFILELISTFILE.CPP
G:\DEVELOPMENT\STORMLIB\BIN\STORMLIB\WIN32\DEBUGAD\STORMLIB.PDB
^G:\DEVELOPMENT\STORMLIB\SRC\SFILEOPENARCHIVE.CPP
G:\DEVELOPMENT\STORMLIB\BIN\STORMLIB\WIN32\DEBUGAD\STORMLIB.PDB
^G:\DEVELOPMENT\STORMLIB\SRC\SFILEOPENFILEEX.CPP
G:\DEVELOPMENT\STORMLIB\BIN\STORMLIB\WIN32\DEBUGAD\STORMLIB.PDB
^G:\DEVELOPMENT\STORMLIB\SRC\SFILEPATCHARCHIVES.CPP
G:\DEVELOPMENT\STORMLIB\BIN\STORMLIB\WIN32\DEBUGAD\STORMLIB.PDB
^G:\DEVELOPMENT\STORMLIB\SRC\SFILEREADFILE.CPP
G:\DEVELOPMENT\STORMLIB\BIN\STORMLIB\WIN32\DEBUGAD\STORMLIB.PDB
^G:\DEVELOPMENT\STORMLIB\SRC\SFILEVERIFY.CPP
G:\DEVELOPMENT\STORMLIB\BIN\STORMLIB\WIN32\DEBUGAD\STORMLIB.PDB
^G:\DEVELOPMENT\STORMLIB\SRC\BZIP2\BLOCKSORT.C|G:\DEVELOPMENT\STORMLIB\SRC\BZIP2\BZLIB.C|G:\DEVELOPMENT\STORMLIB\SRC\BZIP2\COMPRESS.C|G:\DEVELOPMENT\STORMLIB\SRC\BZIP2\CRCTABLE.C|G:\DEVELOPMENT\STORMLIB\SRC\BZIP2\DECOMPRESS.C|G:\DEVELOPMENT\STORMLIB\SRC\BZIP2\HUFFMAN.C|G:\DEVELOPMENT\STORMLIB\SRC\BZIP2\RANDTABLE.C|G:\DEVELOPMENT\STORMLIB\SRC\JENKINS\LOOKUP3.C|G:\DEVELOPMENT\STORMLIB\SRC\LIBTOMCRYPT\SRC\HASHES\HASH_MEMORY.C|G:\DEVELOPMENT\STORMLIB\SRC\LIBTOMCRYPT\SRC\HASHES\MD5.C|G:\DEVELOPMENT\STORMLIB\SRC\LIBTOMCRYPT\SRC\HASHES\SHA1.C|G:\DEVELOPMENT\STORMLIB\SRC\LIBTOMCRYPT\SRC\MATH\LTM_DESC.C|G:\DEVELOPMENT\STORMLIB\SRC\LIBTOMCRYPT\SRC\MATH\MULTI.C|G:\DEVELOPMENT\STORMLIB\SRC\LIBTOMCRYPT\SRC\MATH\RAND_PRIME.C|G:\DEVELOPMENT\STORMLIB\SRC\LIBTOMCRYPT\SRC\MISC\BASE64_DECODE.C|G:\DEVELOPMENT\STORMLIB\SRC\LIBTOMCRYPT\SRC\MISC\CRYPT_ARGCHK.C|G:\DEVELOPMENT\STORMLIB\SRC\LIBTOMCRYPT\SRC\MISC\CRYPT_FIND_HASH.C|G:\DEVELOPMENT\STORMLIB\SRC\LIBTOMCRYPT\SRC\MISC\CRYPT_FIND_PRNG.C|G:\DEVELOPMENT\STORMLIB\SRC\LIBTOMCRYPT\SRC\MISC\CRYPT_HASH_DESCRIPTOR.C|G:\DEVELOPMENT\STORMLIB\SRC\LIBTOMCRYPT\SRC\MISC\CRYPT_HASH_IS_VALID.C|G:\DEVELOPMENT\STORMLIB\SRC\LIBTOMCRYPT\SRC\MISC\CRYPT_LIBC.C|G:\DEVELOPMENT\STORMLIB\SRC\LIBTOMCRYPT\SRC\MISC\CRYPT_LTC_MP_DESCRIPTOR.C|G:\DEVELOPMENT\STORMLIB\SRC\LIBTOMCRYPT\SRC\MISC\CRYPT_PRNG_DESCRIPTOR.C|G:\DEVELOPMENT\STORMLIB\SRC\LIBTOMCRYPT\SRC\MISC\CRYPT_PRNG_IS_VALID.C|G:\DEVELOPMENT\STORMLIB\SRC\LIBTOMCRYPT\SRC\MISC\CRYPT_REGISTER_HASH.C|G:\DEVELOPMENT\STORMLIB\SRC\LIBTOMCRYPT\SRC\MISC\CRYPT_REGISTER_PRNG.C|G:\DEVELOPMENT\STORMLIB\SRC\LIBTOMCRYPT\SRC\MISC\ZEROMEM.C|G:\DEVELOPMENT\STORMLIB\SRC\LIBTOMCRYPT\SRC\PK\ASN1\DER_DECODE_BIT_STRING.C|G:\DEVELOPMENT\STORMLIB\SRC\LIBTOMCRYPT\SRC\PK\ASN1\DER_DECODE_BOOLEAN.C|G:\DEVELOPMENT\STORMLIB\SRC\LIBTOMCRYPT\SRC\PK\ASN1\DER_DECODE_CHOICE.C|G:\DEVELOPMENT\STORMLIB\SRC\LIBTOMCRYPT\SRC\PK\ASN1\DER_DECODE_IA5_STRING.C|G:\DEVELOPMENT\STORMLIB\SRC\LIBTOMCRYPT\SRC\PK\ASN1\DER_DECODE_INTEGER.C|G:\DEVELOPMENT\STORMLIB\SRC\LIBTOMCRYPT\SRC\PK\ASN1\DER_DECODE_OBJECT_IDENTIFIER.C|G:\DEVELOPMENT\STORMLIB\SRC\LIBTOMCRYPT\SRC\PK\ASN1\DER_DECODE_OCTET_STRING.C|G:\DEVELOPMENT\STORMLIB\SRC\LIBTOMCRYPT\SRC\PK\ASN1\DER_DECODE_PRINTABLE_STRING.C|G:\DEVELOPMENT\STORMLIB\SRC\LIBTOMCRYPT\SRC\PK\ASN1\DER_DECODE_SEQUENCE_EX.C|G:\DEVELOPMENT\STORMLIB\SRC\LIBTOMCRYPT\SRC\PK\ASN1\DER_DECODE_SEQUENCE_FLEXI.C|G:\DEVELOPMENT\STORMLIB\SRC\LIBTOMCRYPT\SRC\PK\ASN1\DER_DECODE_SEQUENCE_MULTI.C|G:\DEVELOPMENT\STORMLIB\SRC\LIBTOMCRYPT\SRC\PK\ASN1\DER_DECODE_SHORT_INTEGER.C|G:\DEVELOPMENT\STORMLIB\SRC\LIBTOMCRYPT\SRC\PK\ASN1\DER_DECODE_UTCTIME.C|G:\DEVELOPMENT\STORMLIB\SRC\LIBTOMCRYPT\SRC\PK\ASN1\DER_DECODE_UTF8_STRING.C|G:\DEVELOPMENT\STORMLIB\SRC\LIBTOMCRYPT\SRC\PK\ASN1\DER_ENCODE_BIT_STRING.C|G:\DEVELOPMENT\STORMLIB\SRC\LIBTOMCRYPT\SRC\PK\ASN1\DER_ENCODE_BOOLEAN.C|G:\DEVELOPMENT\STORMLIB\SRC\LIBTOMCRYPT\SRC\PK\ASN1\DER_ENCODE_IA5_STRING.C|G:\DEVELOPMENT\STORMLIB\SRC\LIBTOMCRYPT\SRC\PK\ASN1\DER_ENCODE_INTEGER.C|G:\DEVELOPMENT\STORMLIB\SRC\LIBTOMCRYPT\SRC\PK\ASN1\DER_ENCODE_OBJECT_IDENTIFIER.C|G:\DEVELOPMENT\STORMLIB\SRC\LIBTOMCRYPT\SRC\PK\ASN1\DER_ENCODE_OCTET_STRING.C|G:\DEVELOPMENT\STORMLIB\SRC\LIBTOMCRYPT\SRC\PK\ASN1\DER_ENCODE_PRINTABLE_STRING.C|G:\DEVELOPMENT\STORMLIB\SRC\LIBTOMCRYPT\SRC\PK\ASN1\DER_ENCODE_SEQUENCE_EX.C|G:\DEVELOPMENT\STORMLIB\SRC\LIBTOMCRYPT\SRC\PK\ASN1\DER_ENCODE_SEQUENCE_MULTI.C|G:\DEVELOPMENT\STORMLIB\SRC\LIBTOMCRYPT\SRC\PK\ASN1\DER_ENCODE_SET.C|G:\DEVELOPMENT\STORMLIB\SRC\LIBTOMCRYPT\SRC\PK\ASN1\DER_ENCODE_SETOF.C|G:\DEVELOPMENT\STORMLIB\SRC\LIBTOMCRYPT\SRC\PK\ASN1\DER_ENCODE_SHORT_INTEGER.C|G:\DEVELOPMENT\STORMLIB\SRC\LIBTOMCRYPT\SRC\PK\ASN1\DER_ENCODE_UTCTIME.C|G:\DEVELOPMENT\STORMLIB\SRC\LIBTOMCRYPT\SRC\PK\ASN1\DER_ENCODE_UTF8_STRING.C|G:\DEVELOPMENT\STORMLIB\SRC\LIBTOMCRYPT\SRC\PK\ASN1\DER_LENGTH_BIT_STRING.C|G:\DEVELOPMENT\STORMLIB\SRC\LIBTOMCRYPT\SRC\PK\ASN1\DER_LENGTH_BOOLEAN.C|G:\DEVELOPMENT\STORMLIB\SRC\LIBTOMCRYPT\SRC\PK\ASN1\DER_LENGTH_IA5_STRING.C|G:\DEVELOPMENT\STORMLIB\SRC\LIBTOMCRYPT\SRC\PK\ASN1\DER_LENGTH_INTEGER.C|G:\DEVELOPMENT\STORMLIB\SRC\LIBTOMCRYPT\SRC\PK\ASN1\DER_LENGTH_OBJECT_IDENTIFIER.C|G:\DEVELOPMENT\STORMLIB\SRC\LIBTOMCRYPT\SRC\PK\ASN1\DER_LENGTH_OCTET_STRING.C|G:\DEVELOPMENT\STORMLIB\SRC\LIBTOMCRYPT\SRC\PK\ASN1\DER_LENGTH_PRINTABLE_STRING.C|G:\DEVELOPMENT\STORMLIB\SRC\LIBTOMCRYPT\SRC\PK\ASN1\DER_LENGTH_SEQUENCE.C|G:\DEVELOPMENT\STORMLIB\SRC\LIBTOMCRYPT\SRC\PK\ASN1\DER_LENGTH_SHORT_INTEGER.C|G:\DEVELOPMENT\STORMLIB\SRC\LIBTOMCRYPT\SRC\PK\ASN1\DER_LENGTH_UTCTIME.C|G:\DEVELOPMENT\STORMLIB\SRC\LIBTOMCRYPT\SRC\PK\ASN1\DER_LENGTH_UTF8_STRING.C|G:\DEVELOPMENT\STORMLIB\SRC\LIBTOMCRYPT\SRC\PK\ASN1\DER_SEQUENCE_FREE.C|G:\DEVELOPMENT\STORMLIB\SRC\LIBTOMCRYPT\SRC\PK\ECC\LTC_ECC_MAP.C|G:\DEVELOPMENT\STORMLIB\SRC\LIBTOMCRYPT\SRC\PK\ECC\LTC_ECC_MUL2ADD.C|G:\DEVELOPMENT\STORMLIB\SRC\LIBTOMCRYPT\SRC\PK\ECC\LTC_ECC_MULMOD.C|G:\DEVELOPMENT\STORMLIB\SRC\LIBTOMCRYPT\SRC\PK\ECC\LTC_ECC_POINTS.C|G:\DEVELOPMENT\STORMLIB\SRC\LIBTOMCRYPT\SRC\PK\ECC\LTC_ECC_PROJECTIVE_ADD_POINT.C|G:\DEVELOPMENT\STORMLIB\SRC\LIBTOMCRYPT\SRC\PK\ECC\LTC_ECC_PROJECTIVE_DBL_POINT.C|G:\DEVELOPMENT\STORMLIB\SRC\LIBTOMCRYPT\SRC\PK\PKCS1\PKCS_1_MGF1.C|G:\DEVELOPMENT\STORMLIB\SRC\LIBTOMCRYPT\SRC\PK\PKCS1\PKCS_1_OAEP_DECODE.C|G:\DEVELOPMENT\STORMLIB\SRC\LIBTOMCRYPT\SRC\PK\PKCS1\PKCS_1_PSS_DECODE.C|G:\DEVELOPMENT\STORMLIB\SRC\LIBTOMCRYPT\SRC\PK\PKCS1\PKCS_1_PSS_ENCODE.C|G:\DEVELOPMENT\STORMLIB\SRC\LIBTOMCRYPT\SRC\PK\PKCS1\PKCS_1_V1_5_DECODE.C|G:\DEVELOPMENT\STORMLIB\SRC\LIBTOMCRYPT\SRC\PK\PKCS1\PKCS_1_V1_5_ENCODE.C|G:\DEVELOPMENT\STORMLIB\SRC\LIBTOMCRYPT\SRC\PK\RSA\RSA_EXPTMOD.C|G:\DEVELOPMENT\STORMLIB\SRC\LIBTOMCRYPT\SRC\PK\RSA\RSA_FREE.C|G:\DEVELOPMENT\STORMLIB\SRC\LIBTOMCRYPT\SRC\PK\RSA\RSA_IMPORT.C|G:\DEVELOPMENT\STORMLIB\SRC\LIBTOMCRYPT\SRC\PK\RSA\RSA_MAKE_KEY.C|G:\DEVELOPMENT\STORMLIB\SRC\LIBTOMCRYPT\SRC\PK\RSA\RSA_SIGN_HASH.C|G:\DEVELOPMENT\STORMLIB\SRC\LIBTOMCRYPT\SRC\PK\RSA\RSA_VERIFY_HASH.C|G:\DEVELOPMENT\STORMLIB\SRC\LIBTOMCRYPT\SRC\PK\RSA\RSA_VERIFY_SIMPLE.C|G:\DEVELOPMENT\STORMLIB\SRC\LIBTOMMATH\BNCORE.C|G:\DEVELOPMENT\STORMLIB\SRC\LIBTOMMATH\BN_FAST_MP_INVMOD.C|G:\DEVELOPMENT\STORMLIB\SRC\LIBTOMMATH\BN_FAST_MP_MONTGOMERY_REDUCE.C|G:\DEVELOPMENT\STORMLIB\SRC\LIBTOMMATH\BN_FAST_S_MP_MUL_DIGS.C|G:\DEVELOPMENT\STORMLIB\SRC\LIBTOMMATH\BN_FAST_S_MP_MUL_HIGH_DIGS.C|G:\DEVELOPMENT\STORMLIB\SRC\LIBTOMMATH\BN_FAST_S_MP_SQR.C|G:\DEVELOPMENT\STORMLIB\SRC\LIBTOMMATH\BN_MP_2EXPT.C|G:\DEVELOPMENT\STORMLIB\SRC\LIBTOMMATH\BN_MP_ABS.C|G:\DEVELOPMENT\STORMLIB\SRC\LIBTOMMATH\BN_MP_ADD.C|G:\DEVELOPMENT\STORMLIB\SRC\LIBTOMMATH\BN_MP_ADDMOD.C|G:\DEVELOPMENT\STORMLIB\SRC\LIBTOMMATH\BN_MP_ADD_D.C|G:\DEVELOPMENT\STORMLIB\SRC\LIBTOMMATH\BN_MP_AND.C|G:\DEVELOPMENT\STORMLIB\SRC\LIBTOMMATH\BN_MP_CLAMP.C|G:\DEVELOPMENT\STORMLIB\SRC\LIBTOMMATH\BN_MP_CLEAR.C|G:\DEVELOPMENT\STORMLIB\SRC\LIBTOMMATH\BN_MP_CLEAR_MULTI.C|G:\DEVELOPMENT\STORMLIB\SRC\LIBTOMMATH\BN_MP_CMP.C|G:\DEVELOPMENT\STORMLIB\SRC\LIBTOMMATH\BN_MP_CMP_D.C|G:\DEVELOPMENT\STORMLIB\SRC\LIBTOMMATH\BN_MP_CMP_MAG.C|G:\DEVELOPMENT\STORMLIB\SRC\LIBTOMMATH\BN_MP_CNT_LSB.C|G:\DEVELOPMENT\STORMLIB\SRC\LIBTOMMATH\BN_MP_COPY.C|G:\DEVELOPMENT\STORMLIB\SRC\LIBTOMMATH\BN_MP_COUNT_BITS.C|G:\DEVELOPMENT\STORMLIB\SRC\LIBTOMMATH\BN_MP_DIV.C|G:\DEVELOPMENT\STORMLIB\SRC\LIBTOMMATH\BN_MP_DIV_2.C|G:\DEVELOPMENT\STORMLIB\SRC\LIBTOMMATH\BN_MP_DIV_2D.C|G:\DEVELOPMENT\STORMLIB\SRC\LIBTOMMATH\BN_MP_DIV_3.C|G:\DEVELOPMENT\STORMLIB\SRC\LIBTOMMATH\BN_MP_DIV_D.C|G:\DEVELOPMENT\STORMLIB\SRC\LIBTOMMATH\BN_MP_DR_IS_MODULUS.C|G:\DEVELOPMENT\STORMLIB\SRC\LIBTOMMATH\BN_MP_DR_REDUCE.C|G:\DEVELOPMENT\STORMLIB\SRC\LIBTOMMATH\BN_MP_DR_SETUP.C|G:\DEVELOPMENT\STORMLIB\SRC\LIBTOMMATH\BN_MP_EXCH.C|G:\DEVELOPMENT\STORMLIB\SRC\LIBTOMMATH\BN_MP_EXPTMOD.C|G:\DEVELOPMENT\STORMLIB\SRC\LIBTOMMATH\BN_MP_EXPTMOD_FAST.C|G:\DEVELOPMENT\STORMLIB\SRC\LIBTOMMATH\BN_MP_EXPT_D.C|G:\DEVELOPMENT\STORMLIB\SRC\LIBTOMMATH\BN_MP_EXTEUCLID.C|G:\DEVELOPMENT\STORMLIB\SRC\LIBTOMMATH\BN_MP_FREAD.C|G:\DEVELOPMENT\STORMLIB\SRC\LIBTOMMATH\BN_MP_FWRITE.C|G:\DEVELOPMENT\STORMLIB\SRC\LIBTOMMATH\BN_MP_GCD.C|G:\DEVELOPMENT\STORMLIB\SRC\LIBTOMMATH\BN_MP_GET_INT.C|G:\DEVELOPMENT\STORMLIB\SRC\LIBTOMMATH\BN_MP_GROW.C|G:\DEVELOPMENT\STORMLIB\SRC\LIBTOMMATH\BN_MP_INIT.C|G:\DEVELOPMENT\STORMLIB\SRC\LIBTOMMATH\BN_MP_INIT_COPY.C|G:\DEVELOPMENT\STORMLIB\SRC\LIBTOMMATH\BN_MP_INIT_MULTI.C|G:\DEVELOPMENT\STORMLIB\SRC\LIBTOMMATH\BN_MP_INIT_SET.C|G:\DEVELOPMENT\STORMLIB\SRC\LIBTOMMATH\BN_MP_INIT_SET_INT.C|G:\DEVELOPMENT\STORMLIB\SRC\LIBTOMMATH\BN_MP_INIT_SIZE.C|G:\DEVELOPMENT\STORMLIB\SRC\LIBTOMMATH\BN_MP_INVMOD.C|G:\DEVELOPMENT\STORMLIB\SRC\LIBTOMMATH\BN_MP_INVMOD_SLOW.C|G:\DEVELOPMENT\STORMLIB\SRC\LIBTOMMATH\BN_MP_IS_SQUARE.C|G:\DEVELOPMENT\STORMLIB\SRC\LIBTOMMATH\BN_MP_JACOBI.C|G:\DEVELOPMENT\STORMLIB\SRC\LIBTOMMATH\BN_MP_KARATSUBA_MUL.C|G:\DEVELOPMENT\STORMLIB\SRC\LIBTOMMATH\BN_MP_KARATSUBA_SQR.C|G:\DEVELOPMENT\STORMLIB\SRC\LIBTOMMATH\BN_MP_LCM.C|G:\DEVELOPMENT\STORMLIB\SRC\LIBTOMMATH\BN_MP_LSHD.C|G:\DEVELOPMENT\STORMLIB\SRC\LIBTOMMATH\BN_MP_MOD.C|G:\DEVELOPMENT\STORMLIB\SRC\LIBTOMMATH\BN_MP_MOD_2D.C|G:\DEVELOPMENT\STORMLIB\SRC\LIBTOMMATH\BN_MP_MOD_D.C|G:\DEVELOPMENT\STORMLIB\SRC\LIBTOMMATH\BN_MP_MONTGOMERY_CALC_NORMALIZATION.C|G:\DEVELOPMENT\STORMLIB\SRC\LIBTOMMATH\BN_MP_MONTGOMERY_REDUCE.C|G:\DEVELOPMENT\STORMLIB\SRC\LIBTOMMATH\BN_MP_MONTGOMERY_SETUP.C|G:\DEVELOPMENT\STORMLIB\SRC\LIBTOMMATH\BN_MP_MUL.C|G:\DEVELOPMENT\STORMLIB\SRC\LIBTOMMATH\BN_MP_MULMOD.C|G:\DEVELOPMENT\STORMLIB\SRC\LIBTOMMATH\BN_MP_MUL_2.C|G:\DEVELOPMENT\STORMLIB\SRC\LIBTOMMATH\BN_MP_MUL_2D.C|G:\DEVELOPMENT\STORMLIB\SRC\LIBTOMMATH\BN_MP_MUL_D.C|G:\DEVELOPMENT\STORMLIB\SRC\LIBTOMMATH\BN_MP_NEG.C|G:\DEVELOPMENT\STORMLIB\SRC\LIBTOMMATH\BN_MP_N_ROOT.C|G:\DEVELOPMENT\STORMLIB\SRC\LIBTOMMATH\BN_MP_OR.C|G:\DEVELOPMENT\STORMLIB\SRC\LIBTOMMATH\BN_MP_PRIME_FERMAT.C|G:\DEVELOPMENT\STORMLIB\SRC\LIBTOMMATH\BN_MP_PRIME_IS_DIVISIBLE.C|G:\DEVELOPMENT\STORMLIB\SRC\LIBTOMMATH\BN_MP_PRIME_IS_PRIME.C|G:\DEVELOPMENT\STORMLIB\SRC\LIBTOMMATH\BN_MP_PRIME_MILLER_RABIN.C|G:\DEVELOPMENT\STORMLIB\SRC\LIBTOMMATH\BN_MP_PRIME_NEXT_PRIME.C|G:\DEVELOPMENT\STORMLIB\SRC\LIBTOMMATH\BN_MP_PRIME_RABIN_MILLER_TRIALS.C|G:\DEVELOPMENT\STORMLIB\SRC\LIBTOMMATH\BN_MP_PRIME_RANDOM_EX.C|G:\DEVELOPMENT\STORMLIB\SRC\LIBTOMMATH\BN_MP_RADIX_SIZE.C|G:\DEVELOPMENT\STORMLIB\SRC\LIBTOMMATH\BN_MP_RADIX_SMAP.C|G:\DEVELOPMENT\STORMLIB\SRC\LIBTOMMATH\BN_MP_RAND.C|G:\DEVELOPMENT\STORMLIB\SRC\LIBTOMMATH\BN_MP_READ_RADIX.C|G:\DEVELOPMENT\STORMLIB\SRC\LIBTOMMATH\BN_MP_READ_SIGNED_BIN.C|G:\DEVELOPMENT\STORMLIB\SRC\LIBTOMMATH\BN_MP_READ_UNSIGNED_BIN.C|G:\DEVELOPMENT\STORMLIB\SRC\LIBTOMMATH\BN_MP_REDUCE.C|G:\DEVELOPMENT\STORMLIB\SRC\LIBTOMMATH\BN_MP_REDUCE_2K.C|G:\DEVELOPMENT\STORMLIB\SRC\LIBTOMMATH\BN_MP_REDUCE_2K_L.C|G:\DEVELOPMENT\STORMLIB\SRC\LIBTOMMATH\BN_MP_REDUCE_2K_SETUP.C|G:\DEVELOPMENT\STORMLIB\SRC\LIBTOMMATH\BN_MP_REDUCE_2K_SETUP_L.C|G:\DEVELOPMENT\STORMLIB\SRC\LIBTOMMATH\BN_MP_REDUCE_IS_2K.C|G:\DEVELOPMENT\STORMLIB\SRC\LIBTOMMATH\BN_MP_REDUCE_IS_2K_L.C|G:\DEVELOPMENT\STORMLIB\SRC\LIBTOMMATH\BN_MP_REDUCE_SETUP.C|G:\DEVELOPMENT\STORMLIB\SRC\LIBTOMMATH\BN_MP_RSHD.C|G:\DEVELOPMENT\STORMLIB\SRC\LIBTOMMATH\BN_MP_SET.C|G:\DEVELOPMENT\STORMLIB\SRC\LIBTOMMATH\BN_MP_SET_INT.C|G:\DEVELOPMENT\STORMLIB\SRC\LIBTOMMATH\BN_MP_SHRINK.C|G:\DEVELOPMENT\STORMLIB\SRC\LIBTOMMATH\BN_MP_SIGNED_BIN_SIZE.C|G:\DEVELOPMENT\STORMLIB\SRC\LIBTOMMATH\BN_MP_SQR.C|G:\DEVELOPMENT\STORMLIB\SRC\LIBTOMMATH\BN_MP_SQRMOD.C|G:\DEVELOPMENT\STORMLIB\SRC\LIBTOMMATH\BN_MP_SQRT.C|G:\DEVELOPMENT\STORMLIB\SRC\LIBTOMMATH\BN_MP_SUB.C|G:\DEVELOPMENT\STORMLIB\SRC\LIBTOMMATH\BN_MP_SUBMOD.C|G:\DEVELOPMENT\STORMLIB\SRC\LIBTOMMATH\BN_MP_SUB_D.C|G:\DEVELOPMENT\STORMLIB\SRC\LIBTOMMATH\BN_MP_TOOM_MUL.C|G:\DEVELOPMENT\STORMLIB\SRC\LIBTOMMATH\BN_MP_TOOM_SQR.C|G:\DEVELOPMENT\STORMLIB\SRC\LIBTOMMATH\BN_MP_TORADIX.C|G:\DEVELOPMENT\STORMLIB\SRC\LIBTOMMATH\BN_MP_TORADIX_N.C|G:\DEVELOPMENT\STORMLIB\SRC\LIBTOMMATH\BN_MP_TO_SIGNED_BIN.C|G:\DEVELOPMENT\STORMLIB\SRC\LIBTOMMATH\BN_MP_TO_SIGNED_BIN_N.C|G:\DEVELOPMENT\STORMLIB\SRC\LIBTOMMATH\BN_MP_TO_UNSIGNED_BIN.C|G:\DEVELOPMENT\STORMLIB\SRC\LIBTOMMATH\BN_MP_TO_UNSIGNED_BIN_N.C|G:\DEVELOPMENT\STORMLIB\SRC\LIBTOMMATH\BN_MP_UNSIGNED_BIN_SIZE.C|G:\DEVELOPMENT\STORMLIB\SRC\LIBTOMMATH\BN_MP_XOR.C|G:\DEVELOPMENT\STORMLIB\SRC\LIBTOMMATH\BN_MP_ZERO.C|G:\DEVELOPMENT\STORMLIB\SRC\LIBTOMMATH\BN_PRIME_TAB.C|G:\DEVELOPMENT\STORMLIB\SRC\LIBTOMMATH\BN_REVERSE.C|G:\DEVELOPMENT\STORMLIB\SRC\LIBTOMMATH\BN_S_MP_ADD.C|G:\DEVELOPMENT\STORMLIB\SRC\LIBTOMMATH\BN_S_MP_EXPTMOD.C|G:\DEVELOPMENT\STORMLIB\SRC\LIBTOMMATH\BN_S_MP_MUL_DIGS.C|G:\DEVELOPMENT\STORMLIB\SRC\LIBTOMMATH\BN_S_MP_MUL_HIGH_DIGS.C|G:\DEVELOPMENT\STORMLIB\SRC\LIBTOMMATH\BN_S_MP_SQR.C|G:\DEVELOPMENT\STORMLIB\SRC\LIBTOMMATH\BN_S_MP_SUB.C|G:\DEVELOPMENT\STORMLIB\SRC\LZMA\C\LZFIND.C|G:\DEVELOPMENT\STORMLIB\SRC\LZMA\C\LZFINDMT.C|G:\DEVELOPMENT\STORMLIB\SRC\LZMA\C\LZMADEC.C|G:\DEVELOPMENT\STORMLIB\SRC\LZMA\C\LZMAENC.C|G:\DEVELOPMENT\STORMLIB\SRC\LZMA\C\THREADS.C|G:\DEVELOPMENT\STORMLIB\SRC\PKLIB\EXPLODE.C|G:\DEVELOPMENT\STORMLIB\SRC\PKLIB\IMPLODE.C|G:\DEVELOPMENT\STORMLIB\SRC\ZLIB\ADLER32.C|G:\DEVELOPMENT\STORMLIB\SRC\ZLIB\COMPRESS_ZLIB.C|G:\DEVELOPMENT\STORMLIB\SRC\ZLIB\CRC32.C|G:\DEVELOPMENT\STORMLIB\SRC\ZLIB\DEFLATE.C|G:\DEVELOPMENT\STORMLIB\SRC\ZLIB\INFFAST.C|G:\DEVELOPMENT\STORMLIB\SRC\ZLIB\INFLATE.C|G:\DEVELOPMENT\STORMLIB\SRC\ZLIB\INFTREES.C|G:\DEVELOPMENT\STORMLIB\SRC\ZLIB\TREES.C|G:\DEVELOPMENT\STORMLIB\SRC\ZLIB\ZUTIL.C
G:\DEVELOPMENT\STORMLIB\BIN\STORMLIB\WIN32\DEBUGAD\STORMLIB.PDB
G:\DEVELOPMENT\STORMLIB\BIN\STORMLIB\WIN32\DEBUGAD\COMPRESS.OBJ
G:\DEVELOPMENT\STORMLIB\BIN\STORMLIB\WIN32\DEBUGAD\BZLIB.OBJ
G:\DEVELOPMENT\STORMLIB\BIN\STORMLIB\WIN32\DEBUGAD\BLOCKSORT.OBJ
G:\DEVELOPMENT\STORMLIB\BIN\STORMLIB\WIN32\DEBUGAD\RSA_SIGN_HASH.OBJ
G:\DEVELOPMENT\STORMLIB\BIN\STORMLIB\WIN32\DEBUGAD\PKCS_1_V1_5_ENCODE.OBJ
G:\DEVELOPMENT\STORMLIB\BIN\STORMLIB\WIN32\DEBUGAD\PKCS_1_PSS_ENCODE.OBJ
G:\DEVELOPMENT\STORMLIB\BIN\STORMLIB\WIN32\DEBUGAD\DER_ENCODE_UTF8_STRING.OBJ
G:\DEVELOPMENT\STORMLIB\BIN\STORMLIB\WIN32\DEBUGAD\DER_ENCODE_UTCTIME.OBJ
G:\DEVELOPMENT\STORMLIB\BIN\STORMLIB\WIN32\DEBUGAD\DER_ENCODE_SHORT_INTEGER.OBJ
G:\DEVELOPMENT\STORMLIB\BIN\STORMLIB\WIN32\DEBUGAD\DER_ENCODE_SETOF.OBJ
G:\DEVELOPMENT\STORMLIB\BIN\STORMLIB\WIN32\DEBUGAD\DER_ENCODE_SET.OBJ
G:\DEVELOPMENT\STORMLIB\BIN\STORMLIB\WIN32\DEBUGAD\DER_ENCODE_SEQUENCE_MULTI.OBJ
G:\DEVELOPMENT\STORMLIB\BIN\STORMLIB\WIN32\DEBUGAD\DER_ENCODE_SEQUENCE_EX.OBJ
G:\DEVELOPMENT\STORMLIB\BIN\STORMLIB\WIN32\DEBUGAD\DER_ENCODE_PRINTABLE_STRING.OBJ
G:\DEVELOPMENT\STORMLIB\BIN\STORMLIB\WIN32\DEBUGAD\DER_ENCODE_OCTET_STRING.OBJ
G:\DEVELOPMENT\STORMLIB\BIN\STORMLIB\WIN32\DEBUGAD\DER_ENCODE_OBJECT_IDENTIFIER.OBJ
G:\DEVELOPMENT\STORMLIB\BIN\STORMLIB\WIN32\DEBUGAD\DER_ENCODE_INTEGER.OBJ
G:\DEVELOPMENT\STORMLIB\BIN\STORMLIB\WIN32\DEBUGAD\DER_ENCODE_IA5_STRING.OBJ
G:\DEVELOPMENT\STORMLIB\BIN\STORMLIB\WIN32\DEBUGAD\DER_ENCODE_BOOLEAN.OBJ
G:\DEVELOPMENT\STORMLIB\BIN\STORMLIB\WIN32\DEBUGAD\DER_ENCODE_BIT_STRING.OBJ
G:\DEVELOPMENT\STORMLIB\BIN\STORMLIB\WIN32\DEBUGAD\CRYPT_PRNG_IS_VALID.OBJ
G:\DEVELOPMENT\STORMLIB\BIN\STORMLIB\WIN32\DEBUGAD\CRYPT_PRNG_DESCRIPTOR.OBJ
G:\DEVELOPMENT\STORMLIB\BIN\STORMLIB\WIN32\DEBUGAD\CRYPT_LTC_MP_DESCRIPTOR.OBJ
G:\DEVELOPMENT\STORMLIB\BIN\STORMLIB\WIN32\DEBUGAD\CRYPT_LIBC.OBJ
G:\DEVELOPMENT\STORMLIB\BIN\STORMLIB\WIN32\DEBUGAD\CRYPT_HASH_IS_VALID.OBJ
G:\DEVELOPMENT\STORMLIB\BIN\STORMLIB\WIN32\DEBUGAD\CRYPT_HASH_DESCRIPTOR.OBJ
G:\DEVELOPMENT\STORMLIB\BIN\STORMLIB\WIN32\DEBUGAD\CRYPT_FIND_PRNG.OBJ
G:\DEVELOPMENT\STORMLIB\BIN\STORMLIB\WIN32\DEBUGAD\CRYPT_FIND_HASH.OBJ
G:\DEVELOPMENT\STORMLIB\BIN\STORMLIB\WIN32\DEBUGAD\CRYPT_ARGCHK.OBJ
G:\DEVELOPMENT\STORMLIB\BIN\STORMLIB\WIN32\DEBUGAD\BASE64_DECODE.OBJ
G:\DEVELOPMENT\STORMLIB\BIN\STORMLIB\WIN32\DEBUGAD\RAND_PRIME.OBJ
G:\DEVELOPMENT\STORMLIB\BIN\STORMLIB\WIN32\DEBUGAD\MULTI.OBJ
G:\DEVELOPMENT\STORMLIB\BIN\STORMLIB\WIN32\DEBUGAD\LTM_DESC.OBJ
G:\DEVELOPMENT\STORMLIB\BIN\STORMLIB\WIN32\DEBUGAD\SHA1.OBJ
G:\DEVELOPMENT\STORMLIB\BIN\STORMLIB\WIN32\DEBUGAD\MD5.OBJ
G:\DEVELOPMENT\STORMLIB\BIN\STORMLIB\WIN32\DEBUGAD\HASH_MEMORY.OBJ
G:\DEVELOPMENT\STORMLIB\BIN\STORMLIB\WIN32\DEBUGAD\RANDTABLE.OBJ
G:\DEVELOPMENT\STORMLIB\BIN\STORMLIB\WIN32\DEBUGAD\HUFFMAN.OBJ
G:\DEVELOPMENT\STORMLIB\BIN\STORMLIB\WIN32\DEBUGAD\DECOMPRESS.OBJ
G:\DEVELOPMENT\STORMLIB\BIN\STORMLIB\WIN32\DEBUGAD\CRCTABLE.OBJ
G:\DEVELOPMENT\STORMLIB\BIN\STORMLIB\WIN32\DEBUGAD\DER_LENGTH_IA5_STRING.OBJ
G:\DEVELOPMENT\STORMLIB\BIN\STORMLIB\WIN32\DEBUGAD\DER_LENGTH_BOOLEAN.OBJ
G:\DEVELOPMENT\STORMLIB\BIN\STORMLIB\WIN32\DEBUGAD\DER_LENGTH_BIT_STRING.OBJ
G:\DEVELOPMENT\STORMLIB\BIN\STORMLIB\WIN32\DEBUGAD\DER_DECODE_UTF8_STRING.OBJ
G:\DEVELOPMENT\STORMLIB\BIN\STORMLIB\WIN32\DEBUGAD\DER_DECODE_UTCTIME.OBJ
G:\DEVELOPMENT\STORMLIB\BIN\STORMLIB\WIN32\DEBUGAD\DER_DECODE_SHORT_INTEGER.OBJ
G:\DEVELOPMENT\STORMLIB\BIN\STORMLIB\WIN32\DEBUGAD\DER_DECODE_SEQUENCE_MULTI.OBJ
G:\DEVELOPMENT\STORMLIB\BIN\STORMLIB\WIN32\DEBUGAD\DER_DECODE_SEQUENCE_FLEXI.OBJ
G:\DEVELOPMENT\STORMLIB\BIN\STORMLIB\WIN32\DEBUGAD\DER_DECODE_SEQUENCE_EX.OBJ
G:\DEVELOPMENT\STORMLIB\BIN\STORMLIB\WIN32\DEBUGAD\DER_DECODE_PRINTABLE_STRING.OBJ
G:\DEVELOPMENT\STORMLIB\BIN\STORMLIB\WIN32\DEBUGAD\DER_DECODE_OCTET_STRING.OBJ
G:\DEVELOPMENT\STORMLIB\BIN\STORMLIB\WIN32\DEBUGAD\DER_DECODE_OBJECT_IDENTIFIER.OBJ
G:\DEVELOPMENT\STORMLIB\BIN\STORMLIB\WIN32\DEBUGAD\DER_DECODE_INTEGER.OBJ
G:\DEVELOPMENT\STORMLIB\BIN\STORMLIB\WIN32\DEBUGAD\DER_DECODE_IA5_STRING.OBJ
G:\DEVELOPMENT\STORMLIB\BIN\STORMLIB\WIN32\DEBUGAD\DER_DECODE_CHOICE.OBJ
G:\DEVELOPMENT\STORMLIB\BIN\STORMLIB\WIN32\DEBUGAD\DER_DECODE_BOOLEAN.OBJ
G:\DEVELOPMENT\STORMLIB\BIN\STORMLIB\WIN32\DEBUGAD\DER_DECODE_BIT_STRING.OBJ
G:\DEVELOPMENT\STORMLIB\BIN\STORMLIB\WIN32\DEBUGAD\ZEROMEM.OBJ
G:\DEVELOPMENT\STORMLIB\BIN\STORMLIB\WIN32\DEBUGAD\CRYPT_REGISTER_PRNG.OBJ
G:\DEVELOPMENT\STORMLIB\BIN\STORMLIB\WIN32\DEBUGAD\CRYPT_REGISTER_HASH.OBJ
G:\DEVELOPMENT\STORMLIB\BIN\STORMLIB\WIN32\DEBUGAD\RSA_EXPTMOD.OBJ
G:\DEVELOPMENT\STORMLIB\BIN\STORMLIB\WIN32\DEBUGAD\PKCS_1_V1_5_DECODE.OBJ
G:\DEVELOPMENT\STORMLIB\BIN\STORMLIB\WIN32\DEBUGAD\PKCS_1_PSS_DECODE.OBJ
G:\DEVELOPMENT\STORMLIB\BIN\STORMLIB\WIN32\DEBUGAD\PKCS_1_OAEP_DECODE.OBJ
G:\DEVELOPMENT\STORMLIB\BIN\STORMLIB\WIN32\DEBUGAD\PKCS_1_MGF1.OBJ
G:\DEVELOPMENT\STORMLIB\BIN\STORMLIB\WIN32\DEBUGAD\LTC_ECC_PROJECTIVE_DBL_POINT.OBJ
G:\DEVELOPMENT\STORMLIB\BIN\STORMLIB\WIN32\DEBUGAD\LTC_ECC_PROJECTIVE_ADD_POINT.OBJ
G:\DEVELOPMENT\STORMLIB\BIN\STORMLIB\WIN32\DEBUGAD\LTC_ECC_POINTS.OBJ
G:\DEVELOPMENT\STORMLIB\BIN\STORMLIB\WIN32\DEBUGAD\LTC_ECC_MULMOD.OBJ
G:\DEVELOPMENT\STORMLIB\BIN\STORMLIB\WIN32\DEBUGAD\LTC_ECC_MUL2ADD.OBJ
G:\DEVELOPMENT\STORMLIB\BIN\STORMLIB\WIN32\DEBUGAD\LTC_ECC_MAP.OBJ
G:\DEVELOPMENT\STORMLIB\BIN\STORMLIB\WIN32\DEBUGAD\DER_SEQUENCE_FREE.OBJ
G:\DEVELOPMENT\STORMLIB\BIN\STORMLIB\WIN32\DEBUGAD\DER_LENGTH_UTF8_STRING.OBJ
G:\DEVELOPMENT\STORMLIB\BIN\STORMLIB\WIN32\DEBUGAD\DER_LENGTH_UTCTIME.OBJ
G:\DEVELOPMENT\STORMLIB\BIN\STORMLIB\WIN32\DEBUGAD\DER_LENGTH_SHORT_INTEGER.OBJ
G:\DEVELOPMENT\STORMLIB\BIN\STORMLIB\WIN32\DEBUGAD\DER_LENGTH_SEQUENCE.OBJ
G:\DEVELOPMENT\STORMLIB\BIN\STORMLIB\WIN32\DEBUGAD\DER_LENGTH_PRINTABLE_STRING.OBJ
G:\DEVELOPMENT\STORMLIB\BIN\STORMLIB\WIN32\DEBUGAD\DER_LENGTH_OCTET_STRING.OBJ
G:\DEVELOPMENT\STORMLIB\BIN\STORMLIB\WIN32\DEBUGAD\DER_LENGTH_OBJECT_IDENTIFIER.OBJ
G:\DEVELOPMENT\STORMLIB\BIN\STORMLIB\WIN32\DEBUGAD\DER_LENGTH_INTEGER.OBJ
G:\DEVELOPMENT\STORMLIB\BIN\STORMLIB\WIN32\DEBUGAD\BN_MP_CMP.OBJ
G:\DEVELOPMENT\STORMLIB\BIN\STORMLIB\WIN32\DEBUGAD\BN_MP_CLEAR_MULTI.OBJ
G:\DEVELOPMENT\STORMLIB\BIN\STORMLIB\WIN32\DEBUGAD\BN_MP_CLEAR.OBJ
G:\DEVELOPMENT\STORMLIB\BIN\STORMLIB\WIN32\DEBUGAD\BN_MP_CLAMP.OBJ
G:\DEVELOPMENT\STORMLIB\BIN\STORMLIB\WIN32\DEBUGAD\BN_MP_AND.OBJ
G:\DEVELOPMENT\STORMLIB\BIN\STORMLIB\WIN32\DEBUGAD\BN_MP_ADDMOD.OBJ
G:\DEVELOPMENT\STORMLIB\BIN\STORMLIB\WIN32\DEBUGAD\BN_MP_ADD_D.OBJ
G:\DEVELOPMENT\STORMLIB\BIN\STORMLIB\WIN32\DEBUGAD\BN_MP_ADD.OBJ
G:\DEVELOPMENT\STORMLIB\BIN\STORMLIB\WIN32\DEBUGAD\BN_MP_ABS.OBJ
G:\DEVELOPMENT\STORMLIB\BIN\STORMLIB\WIN32\DEBUGAD\BN_MP_2EXPT.OBJ
G:\DEVELOPMENT\STORMLIB\BIN\STORMLIB\WIN32\DEBUGAD\BN_FAST_S_MP_SQR.OBJ
G:\DEVELOPMENT\STORMLIB\BIN\STORMLIB\WIN32\DEBUGAD\BN_FAST_S_MP_MUL_HIGH_DIGS.OBJ
G:\DEVELOPMENT\STORMLIB\BIN\STORMLIB\WIN32\DEBUGAD\BN_FAST_S_MP_MUL_DIGS.OBJ
G:\DEVELOPMENT\STORMLIB\BIN\STORMLIB\WIN32\DEBUGAD\BN_FAST_MP_MONTGOMERY_REDUCE.OBJ
G:\DEVELOPMENT\STORMLIB\BIN\STORMLIB\WIN32\DEBUGAD\BN_FAST_MP_INVMOD.OBJ
G:\DEVELOPMENT\STORMLIB\BIN\STORMLIB\WIN32\DEBUGAD\RSA_VERIFY_SIMPLE.OBJ
G:\DEVELOPMENT\STORMLIB\BIN\STORMLIB\WIN32\DEBUGAD\RSA_VERIFY_HASH.OBJ
G:\DEVELOPMENT\STORMLIB\BIN\STORMLIB\WIN32\DEBUGAD\RSA_MAKE_KEY.OBJ
G:\DEVELOPMENT\STORMLIB\BIN\STORMLIB\WIN32\DEBUGAD\RSA_IMPORT.OBJ
G:\DEVELOPMENT\STORMLIB\BIN\STORMLIB\WIN32\DEBUGAD\RSA_FREE.OBJ
G:\DEVELOPMENT\STORMLIB\BIN\STORMLIB\WIN32\DEBUGAD\BN_MP_FWRITE.OBJ
G:\DEVELOPMENT\STORMLIB\BIN\STORMLIB\WIN32\DEBUGAD\BN_MP_FREAD.OBJ
G:\DEVELOPMENT\STORMLIB\BIN\STORMLIB\WIN32\DEBUGAD\BN_MP_EXTEUCLID.OBJ
G:\DEVELOPMENT\STORMLIB\BIN\STORMLIB\WIN32\DEBUGAD\BN_MP_EXPTMOD_FAST.OBJ
G:\DEVELOPMENT\STORMLIB\BIN\STORMLIB\WIN32\DEBUGAD\BN_MP_EXPTMOD.OBJ
G:\DEVELOPMENT\STORMLIB\BIN\STORMLIB\WIN32\DEBUGAD\BN_MP_EXPT_D.OBJ
G:\DEVELOPMENT\STORMLIB\BIN\STORMLIB\WIN32\DEBUGAD\BN_MP_EXCH.OBJ
G:\DEVELOPMENT\STORMLIB\BIN\STORMLIB\WIN32\DEBUGAD\BN_MP_DR_SETUP.OBJ
G:\DEVELOPMENT\STORMLIB\BIN\STORMLIB\WIN32\DEBUGAD\BN_MP_DR_REDUCE.OBJ
G:\DEVELOPMENT\STORMLIB\BIN\STORMLIB\WIN32\DEBUGAD\BN_MP_DR_IS_MODULUS.OBJ
G:\DEVELOPMENT\STORMLIB\BIN\STORMLIB\WIN32\DEBUGAD\BN_MP_DIV_D.OBJ
G:\DEVELOPMENT\STORMLIB\BIN\STORMLIB\WIN32\DEBUGAD\BN_MP_DIV_3.OBJ
G:\DEVELOPMENT\STORMLIB\BIN\STORMLIB\WIN32\DEBUGAD\BN_MP_DIV_2D.OBJ
G:\DEVELOPMENT\STORMLIB\BIN\STORMLIB\WIN32\DEBUGAD\BN_MP_DIV_2.OBJ
G:\DEVELOPMENT\STORMLIB\BIN\STORMLIB\WIN32\DEBUGAD\BN_MP_DIV.OBJ
G:\DEVELOPMENT\STORMLIB\BIN\STORMLIB\WIN32\DEBUGAD\BN_MP_COUNT_BITS.OBJ
G:\DEVELOPMENT\STORMLIB\BIN\STORMLIB\WIN32\DEBUGAD\BN_MP_COPY.OBJ
G:\DEVELOPMENT\STORMLIB\BIN\STORMLIB\WIN32\DEBUGAD\BN_MP_CNT_LSB.OBJ
G:\DEVELOPMENT\STORMLIB\BIN\STORMLIB\WIN32\DEBUGAD\BN_MP_CMP_MAG.OBJ
G:\DEVELOPMENT\STORMLIB\BIN\STORMLIB\WIN32\DEBUGAD\BN_MP_CMP_D.OBJ
G:\DEVELOPMENT\STORMLIB\BIN\STORMLIB\WIN32\DEBUGAD\BN_MP_MOD_D.OBJ
G:\DEVELOPMENT\STORMLIB\BIN\STORMLIB\WIN32\DEBUGAD\BN_MP_MOD_2D.OBJ
G:\DEVELOPMENT\STORMLIB\BIN\STORMLIB\WIN32\DEBUGAD\BN_MP_MOD.OBJ
G:\DEVELOPMENT\STORMLIB\BIN\STORMLIB\WIN32\DEBUGAD\BN_MP_LSHD.OBJ
G:\DEVELOPMENT\STORMLIB\BIN\STORMLIB\WIN32\DEBUGAD\BN_MP_LCM.OBJ
G:\DEVELOPMENT\STORMLIB\BIN\STORMLIB\WIN32\DEBUGAD\BN_MP_KARATSUBA_SQR.OBJ
G:\DEVELOPMENT\STORMLIB\BIN\STORMLIB\WIN32\DEBUGAD\BN_MP_KARATSUBA_MUL.OBJ
G:\DEVELOPMENT\STORMLIB\BIN\STORMLIB\WIN32\DEBUGAD\BN_MP_JACOBI.OBJ
G:\DEVELOPMENT\STORMLIB\BIN\STORMLIB\WIN32\DEBUGAD\BN_MP_IS_SQUARE.OBJ
G:\DEVELOPMENT\STORMLIB\BIN\STORMLIB\WIN32\DEBUGAD\BN_MP_INVMOD_SLOW.OBJ
G:\DEVELOPMENT\STORMLIB\BIN\STORMLIB\WIN32\DEBUGAD\BN_MP_INVMOD.OBJ
G:\DEVELOPMENT\STORMLIB\BIN\STORMLIB\WIN32\DEBUGAD\BN_MP_INIT_SIZE.OBJ
G:\DEVELOPMENT\STORMLIB\BIN\STORMLIB\WIN32\DEBUGAD\BN_MP_INIT_SET_INT.OBJ
G:\DEVELOPMENT\STORMLIB\BIN\STORMLIB\WIN32\DEBUGAD\BN_MP_INIT_SET.OBJ
G:\DEVELOPMENT\STORMLIB\BIN\STORMLIB\WIN32\DEBUGAD\BN_MP_INIT_MULTI.OBJ
G:\DEVELOPMENT\STORMLIB\BIN\STORMLIB\WIN32\DEBUGAD\BN_MP_INIT_COPY.OBJ
G:\DEVELOPMENT\STORMLIB\BIN\STORMLIB\WIN32\DEBUGAD\BN_MP_INIT.OBJ
G:\DEVELOPMENT\STORMLIB\BIN\STORMLIB\WIN32\DEBUGAD\BN_MP_GROW.OBJ
G:\DEVELOPMENT\STORMLIB\BIN\STORMLIB\WIN32\DEBUGAD\BN_MP_GET_INT.OBJ
G:\DEVELOPMENT\STORMLIB\BIN\STORMLIB\WIN32\DEBUGAD\BN_MP_GCD.OBJ
G:\DEVELOPMENT\STORMLIB\BIN\STORMLIB\WIN32\DEBUGAD\BN_MP_RADIX_SMAP.OBJ
G:\DEVELOPMENT\STORMLIB\BIN\STORMLIB\WIN32\DEBUGAD\BN_MP_RADIX_SIZE.OBJ
G:\DEVELOPMENT\STORMLIB\BIN\STORMLIB\WIN32\DEBUGAD\BN_MP_PRIME_RANDOM_EX.OBJ
G:\DEVELOPMENT\STORMLIB\BIN\STORMLIB\WIN32\DEBUGAD\BN_MP_PRIME_RABIN_MILLER_TRIALS.OBJ
G:\DEVELOPMENT\STORMLIB\BIN\STORMLIB\WIN32\DEBUGAD\BN_MP_PRIME_NEXT_PRIME.OBJ
G:\DEVELOPMENT\STORMLIB\BIN\STORMLIB\WIN32\DEBUGAD\BN_MP_PRIME_MILLER_RABIN.OBJ
G:\DEVELOPMENT\STORMLIB\BIN\STORMLIB\WIN32\DEBUGAD\BN_MP_PRIME_IS_PRIME.OBJ
G:\DEVELOPMENT\STORMLIB\BIN\STORMLIB\WIN32\DEBUGAD\BN_MP_PRIME_IS_DIVISIBLE.OBJ
G:\DEVELOPMENT\STORMLIB\BIN\STORMLIB\WIN32\DEBUGAD\BN_MP_PRIME_FERMAT.OBJ
G:\DEVELOPMENT\STORMLIB\BIN\STORMLIB\WIN32\DEBUGAD\BN_MP_OR.OBJ
G:\DEVELOPMENT\STORMLIB\BIN\STORMLIB\WIN32\DEBUGAD\BN_MP_NEG.OBJ
G:\DEVELOPMENT\STORMLIB\BIN\STORMLIB\WIN32\DEBUGAD\BN_MP_N_ROOT.OBJ
G:\DEVELOPMENT\STORMLIB\BIN\STORMLIB\WIN32\DEBUGAD\BN_MP_MULMOD.OBJ
G:\DEVELOPMENT\STORMLIB\BIN\STORMLIB\WIN32\DEBUGAD\BN_MP_MUL_D.OBJ
G:\DEVELOPMENT\STORMLIB\BIN\STORMLIB\WIN32\DEBUGAD\BN_MP_MUL_2D.OBJ
G:\DEVELOPMENT\STORMLIB\BIN\STORMLIB\WIN32\DEBUGAD\BN_MP_MUL_2.OBJ
G:\DEVELOPMENT\STORMLIB\BIN\STORMLIB\WIN32\DEBUGAD\BN_MP_MUL.OBJ
G:\DEVELOPMENT\STORMLIB\BIN\STORMLIB\WIN32\DEBUGAD\BN_MP_MONTGOMERY_SETUP.OBJ
G:\DEVELOPMENT\STORMLIB\BIN\STORMLIB\WIN32\DEBUGAD\BN_MP_MONTGOMERY_REDUCE.OBJ
G:\DEVELOPMENT\STORMLIB\BIN\STORMLIB\WIN32\DEBUGAD\BN_MP_MONTGOMERY_CALC_NORMALIZATION.OBJ
G:\DEVELOPMENT\STORMLIB\BIN\STORMLIB\WIN32\DEBUGAD\BN_MP_SQRT.OBJ
G:\DEVELOPMENT\STORMLIB\BIN\STORMLIB\WIN32\DEBUGAD\BN_MP_SQRMOD.OBJ
G:\DEVELOPMENT\STORMLIB\BIN\STORMLIB\WIN32\DEBUGAD\BN_MP_SQR.OBJ
G:\DEVELOPMENT\STORMLIB\BIN\STORMLIB\WIN32\DEBUGAD\BN_MP_SIGNED_BIN_SIZE.OBJ
G:\DEVELOPMENT\STORMLIB\BIN\STORMLIB\WIN32\DEBUGAD\BN_MP_SHRINK.OBJ
G:\DEVELOPMENT\STORMLIB\BIN\STORMLIB\WIN32\DEBUGAD\BN_MP_SET_INT.OBJ
G:\DEVELOPMENT\STORMLIB\BIN\STORMLIB\WIN32\DEBUGAD\BN_MP_SET.OBJ
G:\DEVELOPMENT\STORMLIB\BIN\STORMLIB\WIN32\DEBUGAD\BN_MP_RSHD.OBJ
G:\DEVELOPMENT\STORMLIB\BIN\STORMLIB\WIN32\DEBUGAD\BN_MP_REDUCE_SETUP.OBJ
G:\DEVELOPMENT\STORMLIB\BIN\STORMLIB\WIN32\DEBUGAD\BN_MP_REDUCE_IS_2K_L.OBJ
G:\DEVELOPMENT\STORMLIB\BIN\STORMLIB\WIN32\DEBUGAD\BN_MP_REDUCE_IS_2K.OBJ
G:\DEVELOPMENT\STORMLIB\BIN\STORMLIB\WIN32\DEBUGAD\BN_MP_REDUCE_2K_SETUP_L.OBJ
G:\DEVELOPMENT\STORMLIB\BIN\STORMLIB\WIN32\DEBUGAD\BN_MP_REDUCE_2K_SETUP.OBJ
G:\DEVELOPMENT\STORMLIB\BIN\STORMLIB\WIN32\DEBUGAD\BN_MP_REDUCE_2K_L.OBJ
G:\DEVELOPMENT\STORMLIB\BIN\STORMLIB\WIN32\DEBUGAD\BN_MP_REDUCE_2K.OBJ
G:\DEVELOPMENT\STORMLIB\BIN\STORMLIB\WIN32\DEBUGAD\BN_MP_REDUCE.OBJ
G:\DEVELOPMENT\STORMLIB\BIN\STORMLIB\WIN32\DEBUGAD\BN_MP_READ_UNSIGNED_BIN.OBJ
G:\DEVELOPMENT\STORMLIB\BIN\STORMLIB\WIN32\DEBUGAD\BN_MP_READ_SIGNED_BIN.OBJ
G:\DEVELOPMENT\STORMLIB\BIN\STORMLIB\WIN32\DEBUGAD\BN_MP_READ_RADIX.OBJ
G:\DEVELOPMENT\STORMLIB\BIN\STORMLIB\WIN32\DEBUGAD\BN_MP_RAND.OBJ
G:\DEVELOPMENT\STORMLIB\BIN\STORMLIB\WIN32\DEBUGAD\BN_S_MP_MUL_HIGH_DIGS.OBJ
G:\DEVELOPMENT\STORMLIB\BIN\STORMLIB\WIN32\DEBUGAD\BN_S_MP_MUL_DIGS.OBJ
G:\DEVELOPMENT\STORMLIB\BIN\STORMLIB\WIN32\DEBUGAD\BN_S_MP_EXPTMOD.OBJ
G:\DEVELOPMENT\STORMLIB\BIN\STORMLIB\WIN32\DEBUGAD\BN_S_MP_ADD.OBJ
G:\DEVELOPMENT\STORMLIB\BIN\STORMLIB\WIN32\DEBUGAD\BN_REVERSE.OBJ
G:\DEVELOPMENT\STORMLIB\BIN\STORMLIB\WIN32\DEBUGAD\BN_PRIME_TAB.OBJ
G:\DEVELOPMENT\STORMLIB\BIN\STORMLIB\WIN32\DEBUGAD\BN_MP_ZERO.OBJ
G:\DEVELOPMENT\STORMLIB\BIN\STORMLIB\WIN32\DEBUGAD\BN_MP_XOR.OBJ
G:\DEVELOPMENT\STORMLIB\BIN\STORMLIB\WIN32\DEBUGAD\BN_MP_UNSIGNED_BIN_SIZE.OBJ
G:\DEVELOPMENT\STORMLIB\BIN\STORMLIB\WIN32\DEBUGAD\BN_MP_TORADIX_N.OBJ
G:\DEVELOPMENT\STORMLIB\BIN\STORMLIB\WIN32\DEBUGAD\BN_MP_TORADIX.OBJ
G:\DEVELOPMENT\STORMLIB\BIN\STORMLIB\WIN32\DEBUGAD\BN_MP_TOOM_SQR.OBJ
G:\DEVELOPMENT\STORMLIB\BIN\STORMLIB\WIN32\DEBUGAD\BN_MP_TOOM_MUL.OBJ
G:\DEVELOPMENT\STORMLIB\BIN\STORMLIB\WIN32\DEBUGAD\BN_MP_TO_UNSIGNED_BIN_N.OBJ
G:\DEVELOPMENT\STORMLIB\BIN\STORMLIB\WIN32\DEBUGAD\BN_MP_TO_UNSIGNED_BIN.OBJ
G:\DEVELOPMENT\STORMLIB\BIN\STORMLIB\WIN32\DEBUGAD\BN_MP_TO_SIGNED_BIN_N.OBJ
G:\DEVELOPMENT\STORMLIB\BIN\STORMLIB\WIN32\DEBUGAD\BN_MP_TO_SIGNED_BIN.OBJ
G:\DEVELOPMENT\STORMLIB\BIN\STORMLIB\WIN32\DEBUGAD\BN_MP_SUBMOD.OBJ
G:\DEVELOPMENT\STORMLIB\BIN\STORMLIB\WIN32\DEBUGAD\BN_MP_SUB_D.OBJ
G:\DEVELOPMENT\STORMLIB\BIN\STORMLIB\WIN32\DEBUGAD\BN_MP_SUB.OBJ
G:\DEVELOPMENT\STORMLIB\BIN\STORMLIB\WIN32\DEBUGAD\LOOKUP3.OBJ
G:\DEVELOPMENT\STORMLIB\BIN\STORMLIB\WIN32\DEBUGAD\ZUTIL.OBJ
G:\DEVELOPMENT\STORMLIB\BIN\STORMLIB\WIN32\DEBUGAD\TREES.OBJ
G:\DEVELOPMENT\STORMLIB\BIN\STORMLIB\WIN32\DEBUGAD\INFTREES.OBJ
G:\DEVELOPMENT\STORMLIB\BIN\STORMLIB\WIN32\DEBUGAD\INFLATE.OBJ
G:\DEVELOPMENT\STORMLIB\BIN\STORMLIB\WIN32\DEBUGAD\INFFAST.OBJ
G:\DEVELOPMENT\STORMLIB\BIN\STORMLIB\WIN32\DEBUGAD\DEFLATE.OBJ
G:\DEVELOPMENT\STORMLIB\BIN\STORMLIB\WIN32\DEBUGAD\CRC32.OBJ
G:\DEVELOPMENT\STORMLIB\BIN\STORMLIB\WIN32\DEBUGAD\COMPRESS_ZLIB.OBJ
G:\DEVELOPMENT\STORMLIB\BIN\STORMLIB\WIN32\DEBUGAD\ADLER32.OBJ
G:\DEVELOPMENT\STORMLIB\BIN\STORMLIB\WIN32\DEBUGAD\IMPLODE.OBJ
G:\DEVELOPMENT\STORMLIB\BIN\STORMLIB\WIN32\DEBUGAD\EXPLODE.OBJ
G:\DEVELOPMENT\STORMLIB\BIN\STORMLIB\WIN32\DEBUGAD\THREADS.OBJ
G:\DEVELOPMENT\STORMLIB\BIN\STORMLIB\WIN32\DEBUGAD\LZMAENC.OBJ
G:\DEVELOPMENT\STORMLIB\BIN\STORMLIB\WIN32\DEBUGAD\LZMADEC.OBJ
G:\DEVELOPMENT\STORMLIB\BIN\STORMLIB\WIN32\DEBUGAD\LZFINDMT.OBJ
G:\DEVELOPMENT\STORMLIB\BIN\STORMLIB\WIN32\DEBUGAD\LZFIND.OBJ
G:\DEVELOPMENT\STORMLIB\BIN\STORMLIB\WIN32\DEBUGAD\BNCORE.OBJ
G:\DEVELOPMENT\STORMLIB\BIN\STORMLIB\WIN32\DEBUGAD\BN_S_MP_SUB.OBJ
G:\DEVELOPMENT\STORMLIB\BIN\STORMLIB\WIN32\DEBUGAD\BN_S_MP_SQR.OBJ
^G:\DEVELOPMENT\STORMLIB\SRC\LIBTOMCRYPT\SRC\PK\ASN1\DER_ENCODE_BIT_STRING.C
G:\DEVELOPMENT\STORMLIB\BIN\STORMLIB\WIN32\DEBUGAD\STORMLIB.PDB
^G:\DEVELOPMENT\STORMLIB\SRC\LIBTOMCRYPT\SRC\PK\ASN1\DER_ENCODE_BOOLEAN.C
G:\DEVELOPMENT\STORMLIB\BIN\STORMLIB\WIN32\DEBUGAD\STORMLIB.PDB
^G:\DEVELOPMENT\STORMLIB\SRC\LIBTOMCRYPT\SRC\PK\ASN1\DER_ENCODE_IA5_STRING.C
G:\DEVELOPMENT\STORMLIB\BIN\STORMLIB\WIN32\DEBUGAD\STORMLIB.PDB
^G:\DEVELOPMENT\STORMLIB\SRC\LIBTOMCRYPT\SRC\PK\ASN1\DER_ENCODE_INTEGER.C
G:\DEVELOPMENT\STORMLIB\BIN\STORMLIB\WIN32\DEBUGAD\STORMLIB.PDB
^G:\DEVELOPMENT\STORMLIB\SRC\LIBTOMCRYPT\SRC\PK\ASN1\DER_ENCODE_OBJECT_IDENTIFIER.C
G:\DEVELOPMENT\STORMLIB\BIN\STORMLIB\WIN32\DEBUGAD\STORMLIB.PDB
^G:\DEVELOPMENT\STORMLIB\SRC\LIBTOMCRYPT\SRC\PK\ASN1\DER_ENCODE_OCTET_STRING.C
G:\DEVELOPMENT\STORMLIB\BIN\STORMLIB\WIN32\DEBUGAD\STORMLIB.PDB
^G:\DEVELOPMENT\STORMLIB\SRC\LIBTOMCRYPT\SRC\PK\ASN1\DER_ENCODE_PRINTABLE_STRING.C
G:\DEVELOPMENT\STORMLIB\BIN\STORMLIB\WIN32\DEBUGAD\STORMLIB.PDB
^G:\DEVELOPMENT\STORMLIB\SRC\LIBTOMCRYPT\SRC\PK\ASN1\DER_ENCODE_SEQUENCE_EX.C
G:\DEVELOPMENT\STORMLIB\BIN\STORMLIB\WIN32\DEBUGAD\STORMLIB.PDB
^G:\DEVELOPMENT\STORMLIB\SRC\LIBTOMCRYPT\SRC\PK\ASN1\DER_ENCODE_SEQUENCE_MULTI.C
G:\DEVELOPMENT\STORMLIB\BIN\STORMLIB\WIN32\DEBUGAD\STORMLIB.PDB
^G:\DEVELOPMENT\STORMLIB\SRC\LIBTOMCRYPT\SRC\PK\ASN1\DER_ENCODE_SET.C
G:\DEVELOPMENT\STORMLIB\BIN\STORMLIB\WIN32\DEBUGAD\STORMLIB.PDB
^G:\DEVELOPMENT\STORMLIB\SRC\LIBTOMCRYPT\SRC\PK\ASN1\DER_ENCODE_SETOF.C
G:\DEVELOPMENT\STORMLIB\BIN\STORMLIB\WIN32\DEBUGAD\STORMLIB.PDB
^G:\DEVELOPMENT\STORMLIB\SRC\LIBTOMCRYPT\SRC\PK\ASN1\DER_ENCODE_SHORT_INTEGER.C
G:\DEVELOPMENT\STORMLIB\BIN\STORMLIB\WIN32\DEBUGAD\STORMLIB.PDB
^G:\DEVELOPMENT\STORMLIB\SRC\LIBTOMCRYPT\SRC\PK\ASN1\DER_ENCODE_UTCTIME.C
G:\DEVELOPMENT\STORMLIB\BIN\STORMLIB\WIN32\DEBUGAD\STORMLIB.PDB
^G:\DEVELOPMENT\STORMLIB\SRC\LIBTOMCRYPT\SRC\PK\ASN1\DER_ENCODE_UTF8_STRING.C
G:\DEVELOPMENT\STORMLIB\BIN\STORMLIB\WIN32\DEBUGAD\STORMLIB.PDB
^G:\DEVELOPMENT\STORMLIB\SRC\LIBTOMCRYPT\SRC\PK\PKCS1\PKCS_1_PSS_ENCODE.C
G:\DEVELOPMENT\STORMLIB\BIN\STORMLIB\WIN32\DEBUGAD\STORMLIB.PDB
^G:\DEVELOPMENT\STORMLIB\SRC\LIBTOMCRYPT\SRC\PK\PKCS1\PKCS_1_V1_5_ENCODE.C
G:\DEVELOPMENT\STORMLIB\BIN\STORMLIB\WIN32\DEBUGAD\STORMLIB.PDB
^G:\DEVELOPMENT\STORMLIB\SRC\LIBTOMCRYPT\SRC\PK\RSA\RSA_SIGN_HASH.C
G:\DEVELOPMENT\STORMLIB\BIN\STORMLIB\WIN32\DEBUGAD\STORMLIB.PDB
^G:\DEVELOPMENT\STORMLIB\SRC\BZIP2\BLOCKSORT.C
G:\DEVELOPMENT\STORMLIB\BIN\STORMLIB\WIN32\DEBUGAD\STORMLIB.PDB
^G:\DEVELOPMENT\STORMLIB\SRC\BZIP2\BZLIB.C
G:\DEVELOPMENT\STORMLIB\BIN\STORMLIB\WIN32\DEBUGAD\STORMLIB.PDB
^G:\DEVELOPMENT\STORMLIB\SRC\BZIP2\COMPRESS.C
G:\DEVELOPMENT\STORMLIB\BIN\STORMLIB\WIN32\DEBUGAD\STORMLIB.PDB
^G:\DEVELOPMENT\STORMLIB\SRC\BZIP2\CRCTABLE.C
G:\DEVELOPMENT\STORMLIB\BIN\STORMLIB\WIN32\DEBUGAD\STORMLIB.PDB
^G:\DEVELOPMENT\STORMLIB\SRC\BZIP2\DECOMPRESS.C
G:\DEVELOPMENT\STORMLIB\BIN\STORMLIB\WIN32\DEBUGAD\STORMLIB.PDB
^G:\DEVELOPMENT\STORMLIB\SRC\BZIP2\HUFFMAN.C
G:\DEVELOPMENT\STORMLIB\BIN\STORMLIB\WIN32\DEBUGAD\STORMLIB.PDB
^G:\DEVELOPMENT\STORMLIB\SRC\BZIP2\RANDTABLE.C
G:\DEVELOPMENT\STORMLIB\BIN\STORMLIB\WIN32\DEBUGAD\STORMLIB.PDB
^G:\DEVELOPMENT\STORMLIB\SRC\LIBTOMCRYPT\SRC\HASHES\HASH_MEMORY.C
G:\DEVELOPMENT\STORMLIB\BIN\STORMLIB\WIN32\DEBUGAD\STORMLIB.PDB
^G:\DEVELOPMENT\STORMLIB\SRC\LIBTOMCRYPT\SRC\HASHES\MD5.C
G:\DEVELOPMENT\STORMLIB\BIN\STORMLIB\WIN32\DEBUGAD\STORMLIB.PDB
^G:\DEVELOPMENT\STORMLIB\SRC\LIBTOMCRYPT\SRC\HASHES\SHA1.C
G:\DEVELOPMENT\STORMLIB\BIN\STORMLIB\WIN32\DEBUGAD\STORMLIB.PDB
^G:\DEVELOPMENT\STORMLIB\SRC\LIBTOMCRYPT\SRC\MATH\LTM_DESC.C
G:\DEVELOPMENT\STORMLIB\BIN\STORMLIB\WIN32\DEBUGAD\STORMLIB.PDB
^G:\DEVELOPMENT\STORMLIB\SRC\LIBTOMCRYPT\SRC\MATH\MULTI.C
G:\DEVELOPMENT\STORMLIB\BIN\STORMLIB\WIN32\DEBUGAD\STORMLIB.PDB
^G:\DEVELOPMENT\STORMLIB\SRC\LIBTOMCRYPT\SRC\MATH\RAND_PRIME.C
G:\DEVELOPMENT\STORMLIB\BIN\STORMLIB\WIN32\DEBUGAD\STORMLIB.PDB
^G:\DEVELOPMENT\STORMLIB\SRC\LIBTOMCRYPT\SRC\MISC\BASE64_DECODE.C
G:\DEVELOPMENT\STORMLIB\BIN\STORMLIB\WIN32\DEBUGAD\STORMLIB.PDB
^G:\DEVELOPMENT\STORMLIB\SRC\LIBTOMCRYPT\SRC\MISC\CRYPT_ARGCHK.C
G:\DEVELOPMENT\STORMLIB\BIN\STORMLIB\WIN32\DEBUGAD\STORMLIB.PDB
^G:\DEVELOPMENT\STORMLIB\SRC\LIBTOMCRYPT\SRC\MISC\CRYPT_FIND_HASH.C
G:\DEVELOPMENT\STORMLIB\BIN\STORMLIB\WIN32\DEBUGAD\STORMLIB.PDB
^G:\DEVELOPMENT\STORMLIB\SRC\LIBTOMCRYPT\SRC\MISC\CRYPT_FIND_PRNG.C
G:\DEVELOPMENT\STORMLIB\BIN\STORMLIB\WIN32\DEBUGAD\STORMLIB.PDB
^G:\DEVELOPMENT\STORMLIB\SRC\LIBTOMCRYPT\SRC\MISC\CRYPT_HASH_DESCRIPTOR.C
G:\DEVELOPMENT\STORMLIB\BIN\STORMLIB\WIN32\DEBUGAD\STORMLIB.PDB
^G:\DEVELOPMENT\STORMLIB\SRC\LIBTOMCRYPT\SRC\MISC\CRYPT_HASH_IS_VALID.C
G:\DEVELOPMENT\STORMLIB\BIN\STORMLIB\WIN32\DEBUGAD\STORMLIB.PDB
^G:\DEVELOPMENT\STORMLIB\SRC\LIBTOMCRYPT\SRC\MISC\CRYPT_LIBC.C
G:\DEVELOPMENT\STORMLIB\BIN\STORMLIB\WIN32\DEBUGAD\STORMLIB.PDB
^G:\DEVELOPMENT\STORMLIB\SRC\LIBTOMCRYPT\SRC\MISC\CRYPT_LTC_MP_DESCRIPTOR.C
G:\DEVELOPMENT\STORMLIB\BIN\STORMLIB\WIN32\DEBUGAD\STORMLIB.PDB
^G:\DEVELOPMENT\STORMLIB\SRC\LIBTOMCRYPT\SRC\MISC\CRYPT_PRNG_DESCRIPTOR.C
G:\DEVELOPMENT\STORMLIB\BIN\STORMLIB\WIN32\DEBUGAD\STORMLIB.PDB
^G:\DEVELOPMENT\STORMLIB\SRC\LIBTOMCRYPT\SRC\MISC\CRYPT_PRNG_IS_VALID.C
G:\DEVELOPMENT\STORMLIB\BIN\STORMLIB\WIN32\DEBUGAD\STORMLIB.PDB
^G:\DEVELOPMENT\STORMLIB\SRC\LIBTOMCRYPT\SRC\MISC\CRYPT_REGISTER_HASH.C
G:\DEVELOPMENT\STORMLIB\BIN\STORMLIB\WIN32\DEBUGAD\STORMLIB.PDB
^G:\DEVELOPMENT\STORMLIB\SRC\LIBTOMCRYPT\SRC\MISC\CRYPT_REGISTER_PRNG.C
G:\DEVELOPMENT\STORMLIB\BIN\STORMLIB\WIN32\DEBUGAD\STORMLIB.PDB
^G:\DEVELOPMENT\STORMLIB\SRC\LIBTOMCRYPT\SRC\MISC\ZEROMEM.C
G:\DEVELOPMENT\STORMLIB\BIN\STORMLIB\WIN32\DEBUGAD\STORMLIB.PDB
^G:\DEVELOPMENT\STORMLIB\SRC\LIBTOMCRYPT\SRC\PK\ASN1\DER_DECODE_BIT_STRING.C
G:\DEVELOPMENT\STORMLIB\BIN\STORMLIB\WIN32\DEBUGAD\STORMLIB.PDB
^G:\DEVELOPMENT\STORMLIB\SRC\LIBTOMCRYPT\SRC\PK\ASN1\DER_DECODE_BOOLEAN.C
G:\DEVELOPMENT\STORMLIB\BIN\STORMLIB\WIN32\DEBUGAD\STORMLIB.PDB
^G:\DEVELOPMENT\STORMLIB\SRC\LIBTOMCRYPT\SRC\PK\ASN1\DER_DECODE_CHOICE.C
G:\DEVELOPMENT\STORMLIB\BIN\STORMLIB\WIN32\DEBUGAD\STORMLIB.PDB
^G:\DEVELOPMENT\STORMLIB\SRC\LIBTOMCRYPT\SRC\PK\ASN1\DER_DECODE_IA5_STRING.C
G:\DEVELOPMENT\STORMLIB\BIN\STORMLIB\WIN32\DEBUGAD\STORMLIB.PDB
^G:\DEVELOPMENT\STORMLIB\SRC\LIBTOMCRYPT\SRC\PK\ASN1\DER_DECODE_INTEGER.C
G:\DEVELOPMENT\STORMLIB\BIN\STORMLIB\WIN32\DEBUGAD\STORMLIB.PDB
^G:\DEVELOPMENT\STORMLIB\SRC\LIBTOMCRYPT\SRC\PK\ASN1\DER_DECODE_OBJECT_IDENTIFIER.C
G:\DEVELOPMENT\STORMLIB\BIN\STORMLIB\WIN32\DEBUGAD\STORMLIB.PDB
^G:\DEVELOPMENT\STORMLIB\SRC\LIBTOMCRYPT\SRC\PK\ASN1\DER_DECODE_OCTET_STRING.C
G:\DEVELOPMENT\STORMLIB\BIN\STORMLIB\WIN32\DEBUGAD\STORMLIB.PDB
^G:\DEVELOPMENT\STORMLIB\SRC\LIBTOMCRYPT\SRC\PK\ASN1\DER_DECODE_PRINTABLE_STRING.C
G:\DEVELOPMENT\STORMLIB\BIN\STORMLIB\WIN32\DEBUGAD\STORMLIB.PDB
^G:\DEVELOPMENT\STORMLIB\SRC\LIBTOMCRYPT\SRC\PK\ASN1\DER_DECODE_SEQUENCE_EX.C
G:\DEVELOPMENT\STORMLIB\BIN\STORMLIB\WIN32\DEBUGAD\STORMLIB.PDB
^G:\DEVELOPMENT\STORMLIB\SRC\LIBTOMCRYPT\SRC\PK\ASN1\DER_DECODE_SEQUENCE_FLEXI.C
G:\DEVELOPMENT\STORMLIB\BIN\STORMLIB\WIN32\DEBUGAD\STORMLIB.PDB
^G:\DEVELOPMENT\STORMLIB\SRC\LIBTOMCRYPT\SRC\PK\ASN1\DER_DECODE_SEQUENCE_MULTI.C
G:\DEVELOPMENT\STORMLIB\BIN\STORMLIB\WIN32\DEBUGAD\STORMLIB.PDB
^G:\DEVELOPMENT\STORMLIB\SRC\LIBTOMCRYPT\SRC\PK\ASN1\DER_DECODE_SHORT_INTEGER.C
G:\DEVELOPMENT\STORMLIB\BIN\STORMLIB\WIN32\DEBUGAD\STORMLIB.PDB
^G:\DEVELOPMENT\STORMLIB\SRC\LIBTOMCRYPT\SRC\PK\ASN1\DER_DECODE_UTCTIME.C
G:\DEVELOPMENT\STORMLIB\BIN\STORMLIB\WIN32\DEBUGAD\STORMLIB.PDB
^G:\DEVELOPMENT\STORMLIB\SRC\LIBTOMCRYPT\SRC\PK\ASN1\DER_DECODE_UTF8_STRING.C
G:\DEVELOPMENT\STORMLIB\BIN\STORMLIB\WIN32\DEBUGAD\STORMLIB.PDB
^G:\DEVELOPMENT\STORMLIB\SRC\LIBTOMCRYPT\SRC\PK\ASN1\DER_LENGTH_BIT_STRING.C
G:\DEVELOPMENT\STORMLIB\BIN\STORMLIB\WIN32\DEBUGAD\STORMLIB.PDB
^G:\DEVELOPMENT\STORMLIB\SRC\LIBTOMCRYPT\SRC\PK\ASN1\DER_LENGTH_BOOLEAN.C
G:\DEVELOPMENT\STORMLIB\BIN\STORMLIB\WIN32\DEBUGAD\STORMLIB.PDB
^G:\DEVELOPMENT\STORMLIB\SRC\LIBTOMCRYPT\SRC\PK\ASN1\DER_LENGTH_IA5_STRING.C
G:\DEVELOPMENT\STORMLIB\BIN\STORMLIB\WIN32\DEBUGAD\STORMLIB.PDB
^G:\DEVELOPMENT\STORMLIB\SRC\LIBTOMCRYPT\SRC\PK\ASN1\DER_LENGTH_INTEGER.C
G:\DEVELOPMENT\STORMLIB\BIN\STORMLIB\WIN32\DEBUGAD\STORMLIB.PDB
^G:\DEVELOPMENT\STORMLIB\SRC\LIBTOMCRYPT\SRC\PK\ASN1\DER_LENGTH_OBJECT_IDENTIFIER.C
G:\DEVELOPMENT\STORMLIB\BIN\STORMLIB\WIN32\DEBUGAD\STORMLIB.PDB
^G:\DEVELOPMENT\STORMLIB\SRC\LIBTOMCRYPT\SRC\PK\ASN1\DER_LENGTH_OCTET_STRING.C
G:\DEVELOPMENT\STORMLIB\BIN\STORMLIB\WIN32\DEBUGAD\STORMLIB.PDB
^G:\DEVELOPMENT\STORMLIB\SRC\LIBTOMCRYPT\SRC\PK\ASN1\DER_LENGTH_PRINTABLE_STRING.C
G:\DEVELOPMENT\STORMLIB\BIN\STORMLIB\WIN32\DEBUGAD\STORMLIB.PDB
^G:\DEVELOPMENT\STORMLIB\SRC\LIBTOMCRYPT\SRC\PK\ASN1\DER_LENGTH_SEQUENCE.C
G:\DEVELOPMENT\STORMLIB\BIN\STORMLIB\WIN32\DEBUGAD\STORMLIB.PDB
^G:\DEVELOPMENT\STORMLIB\SRC\LIBTOMCRYPT\SRC\PK\ASN1\DER_LENGTH_SHORT_INTEGER.C
G:\DEVELOPMENT\STORMLIB\BIN\STORMLIB\WIN32\DEBUGAD\STORMLIB.PDB
^G:\DEVELOPMENT\STORMLIB\SRC\LIBTOMCRYPT\SRC\PK\ASN1\DER_LENGTH_UTCTIME.C
G:\DEVELOPMENT\STORMLIB\BIN\STORMLIB\WIN32\DEBUGAD\STORMLIB.PDB
^G:\DEVELOPMENT\STORMLIB\SRC\LIBTOMCRYPT\SRC\PK\ASN1\DER_LENGTH_UTF8_STRING.C
G:\DEVELOPMENT\STORMLIB\BIN\STORMLIB\WIN32\DEBUGAD\STORMLIB.PDB
^G:\DEVELOPMENT\STORMLIB\SRC\LIBTOMCRYPT\SRC\PK\ASN1\DER_SEQUENCE_FREE.C
G:\DEVELOPMENT\STORMLIB\BIN\STORMLIB\WIN32\DEBUGAD\STORMLIB.PDB
^G:\DEVELOPMENT\STORMLIB\SRC\LIBTOMCRYPT\SRC\PK\ECC\LTC_ECC_MAP.C
G:\DEVELOPMENT\STORMLIB\BIN\STORMLIB\WIN32\DEBUGAD\STORMLIB.PDB
^G:\DEVELOPMENT\STORMLIB\SRC\LIBTOMCRYPT\SRC\PK\ECC\LTC_ECC_MUL2ADD.C
G:\DEVELOPMENT\STORMLIB\BIN\STORMLIB\WIN32\DEBUGAD\STORMLIB.PDB
^G:\DEVELOPMENT\STORMLIB\SRC\LIBTOMCRYPT\SRC\PK\ECC\LTC_ECC_MULMOD.C
G:\DEVELOPMENT\STORMLIB\BIN\STORMLIB\WIN32\DEBUGAD\STORMLIB.PDB
^G:\DEVELOPMENT\STORMLIB\SRC\LIBTOMCRYPT\SRC\PK\ECC\LTC_ECC_POINTS.C
G:\DEVELOPMENT\STORMLIB\BIN\STORMLIB\WIN32\DEBUGAD\STORMLIB.PDB
^G:\DEVELOPMENT\STORMLIB\SRC\LIBTOMCRYPT\SRC\PK\ECC\LTC_ECC_PROJECTIVE_ADD_POINT.C
G:\DEVELOPMENT\STORMLIB\BIN\STORMLIB\WIN32\DEBUGAD\STORMLIB.PDB
^G:\DEVELOPMENT\STORMLIB\SRC\LIBTOMCRYPT\SRC\PK\ECC\LTC_ECC_PROJECTIVE_DBL_POINT.C
G:\DEVELOPMENT\STORMLIB\BIN\STORMLIB\WIN32\DEBUGAD\STORMLIB.PDB
^G:\DEVELOPMENT\STORMLIB\SRC\LIBTOMCRYPT\SRC\PK\PKCS1\PKCS_1_MGF1.C
G:\DEVELOPMENT\STORMLIB\BIN\STORMLIB\WIN32\DEBUGAD\STORMLIB.PDB
^G:\DEVELOPMENT\STORMLIB\SRC\LIBTOMCRYPT\SRC\PK\PKCS1\PKCS_1_OAEP_DECODE.C
G:\DEVELOPMENT\STORMLIB\BIN\STORMLIB\WIN32\DEBUGAD\STORMLIB.PDB
^G:\DEVELOPMENT\STORMLIB\SRC\LIBTOMCRYPT\SRC\PK\PKCS1\PKCS_1_PSS_DECODE.C
G:\DEVELOPMENT\STORMLIB\BIN\STORMLIB\WIN32\DEBUGAD\STORMLIB.PDB
^G:\DEVELOPMENT\STORMLIB\SRC\LIBTOMCRYPT\SRC\PK\PKCS1\PKCS_1_V1_5_DECODE.C
G:\DEVELOPMENT\STORMLIB\BIN\STORMLIB\WIN32\DEBUGAD\STORMLIB.PDB
^G:\DEVELOPMENT\STORMLIB\SRC\LIBTOMCRYPT\SRC\PK\RSA\RSA_EXPTMOD.C
G:\DEVELOPMENT\STORMLIB\BIN\STORMLIB\WIN32\DEBUGAD\STORMLIB.PDB
^G:\DEVELOPMENT\STORMLIB\SRC\LIBTOMCRYPT\SRC\PK\RSA\RSA_FREE.C
G:\DEVELOPMENT\STORMLIB\BIN\STORMLIB\WIN32\DEBUGAD\STORMLIB.PDB
^G:\DEVELOPMENT\STORMLIB\SRC\LIBTOMCRYPT\SRC\PK\RSA\RSA_IMPORT.C
G:\DEVELOPMENT\STORMLIB\BIN\STORMLIB\WIN32\DEBUGAD\STORMLIB.PDB
^G:\DEVELOPMENT\STORMLIB\SRC\LIBTOMCRYPT\SRC\PK\RSA\RSA_MAKE_KEY.C
G:\DEVELOPMENT\STORMLIB\BIN\STORMLIB\WIN32\DEBUGAD\STORMLIB.PDB
^G:\DEVELOPMENT\STORMLIB\SRC\LIBTOMCRYPT\SRC\PK\RSA\RSA_VERIFY_HASH.C
G:\DEVELOPMENT\STORMLIB\BIN\STORMLIB\WIN32\DEBUGAD\STORMLIB.PDB
^G:\DEVELOPMENT\STORMLIB\SRC\LIBTOMCRYPT\SRC\PK\RSA\RSA_VERIFY_SIMPLE.C
G:\DEVELOPMENT\STORMLIB\BIN\STORMLIB\WIN32\DEBUGAD\STORMLIB.PDB
^G:\DEVELOPMENT\STORMLIB\SRC\LIBTOMMATH\BN_FAST_MP_INVMOD.C
G:\DEVELOPMENT\STORMLIB\BIN\STORMLIB\WIN32\DEBUGAD\STORMLIB.PDB
^G:\DEVELOPMENT\STORMLIB\SRC\LIBTOMMATH\BN_FAST_MP_MONTGOMERY_REDUCE.C
G:\DEVELOPMENT\STORMLIB\BIN\STORMLIB\WIN32\DEBUGAD\STORMLIB.PDB
^G:\DEVELOPMENT\STORMLIB\SRC\LIBTOMMATH\BN_FAST_S_MP_MUL_DIGS.C
G:\DEVELOPMENT\STORMLIB\BIN\STORMLIB\WIN32\DEBUGAD\STORMLIB.PDB
^G:\DEVELOPMENT\STORMLIB\SRC\LIBTOMMATH\BN_FAST_S_MP_MUL_HIGH_DIGS.C
G:\DEVELOPMENT\STORMLIB\BIN\STORMLIB\WIN32\DEBUGAD\STORMLIB.PDB
^G:\DEVELOPMENT\STORMLIB\SRC\LIBTOMMATH\BN_FAST_S_MP_SQR.C
G:\DEVELOPMENT\STORMLIB\BIN\STORMLIB\WIN32\DEBUGAD\STORMLIB.PDB
^G:\DEVELOPMENT\STORMLIB\SRC\LIBTOMMATH\BN_MP_2EXPT.C
G:\DEVELOPMENT\STORMLIB\BIN\STORMLIB\WIN32\DEBUGAD\STORMLIB.PDB
^G:\DEVELOPMENT\STORMLIB\SRC\LIBTOMMATH\BN_MP_ABS.C
G:\DEVELOPMENT\STORMLIB\BIN\STORMLIB\WIN32\DEBUGAD\STORMLIB.PDB
^G:\DEVELOPMENT\STORMLIB\SRC\LIBTOMMATH\BN_MP_ADD.C
G:\DEVELOPMENT\STORMLIB\BIN\STORMLIB\WIN32\DEBUGAD\STORMLIB.PDB
^G:\DEVELOPMENT\STORMLIB\SRC\LIBTOMMATH\BN_MP_ADD_D.C
G:\DEVELOPMENT\STORMLIB\BIN\STORMLIB\WIN32\DEBUGAD\STORMLIB.PDB
^G:\DEVELOPMENT\STORMLIB\SRC\LIBTOMMATH\BN_MP_ADDMOD.C
G:\DEVELOPMENT\STORMLIB\BIN\STORMLIB\WIN32\DEBUGAD\STORMLIB.PDB
^G:\DEVELOPMENT\STORMLIB\SRC\LIBTOMMATH\BN_MP_AND.C
G:\DEVELOPMENT\STORMLIB\BIN\STORMLIB\WIN32\DEBUGAD\STORMLIB.PDB
^G:\DEVELOPMENT\STORMLIB\SRC\LIBTOMMATH\BN_MP_CLAMP.C
G:\DEVELOPMENT\STORMLIB\BIN\STORMLIB\WIN32\DEBUGAD\STORMLIB.PDB
^G:\DEVELOPMENT\STORMLIB\SRC\LIBTOMMATH\BN_MP_CLEAR.C
G:\DEVELOPMENT\STORMLIB\BIN\STORMLIB\WIN32\DEBUGAD\STORMLIB.PDB
^G:\DEVELOPMENT\STORMLIB\SRC\LIBTOMMATH\BN_MP_CLEAR_MULTI.C
G:\DEVELOPMENT\STORMLIB\BIN\STORMLIB\WIN32\DEBUGAD\STORMLIB.PDB
^G:\DEVELOPMENT\STORMLIB\SRC\LIBTOMMATH\BN_MP_CMP.C
G:\DEVELOPMENT\STORMLIB\BIN\STORMLIB\WIN32\DEBUGAD\STORMLIB.PDB
^G:\DEVELOPMENT\STORMLIB\SRC\LIBTOMMATH\BN_MP_CMP_D.C
G:\DEVELOPMENT\STORMLIB\BIN\STORMLIB\WIN32\DEBUGAD\STORMLIB.PDB
^G:\DEVELOPMENT\STORMLIB\SRC\LIBTOMMATH\BN_MP_CMP_MAG.C
G:\DEVELOPMENT\STORMLIB\BIN\STORMLIB\WIN32\DEBUGAD\STORMLIB.PDB
^G:\DEVELOPMENT\STORMLIB\SRC\LIBTOMMATH\BN_MP_CNT_LSB.C
G:\DEVELOPMENT\STORMLIB\BIN\STORMLIB\WIN32\DEBUGAD\STORMLIB.PDB
^G:\DEVELOPMENT\STORMLIB\SRC\LIBTOMMATH\BN_MP_COPY.C
G:\DEVELOPMENT\STORMLIB\BIN\STORMLIB\WIN32\DEBUGAD\STORMLIB.PDB
^G:\DEVELOPMENT\STORMLIB\SRC\LIBTOMMATH\BN_MP_COUNT_BITS.C
G:\DEVELOPMENT\STORMLIB\BIN\STORMLIB\WIN32\DEBUGAD\STORMLIB.PDB
^G:\DEVELOPMENT\STORMLIB\SRC\LIBTOMMATH\BN_MP_DIV.C
G:\DEVELOPMENT\STORMLIB\BIN\STORMLIB\WIN32\DEBUGAD\STORMLIB.PDB
^G:\DEVELOPMENT\STORMLIB\SRC\LIBTOMMATH\BN_MP_DIV_2.C
G:\DEVELOPMENT\STORMLIB\BIN\STORMLIB\WIN32\DEBUGAD\STORMLIB.PDB
^G:\DEVELOPMENT\STORMLIB\SRC\LIBTOMMATH\BN_MP_DIV_2D.C
G:\DEVELOPMENT\STORMLIB\BIN\STORMLIB\WIN32\DEBUGAD\STORMLIB.PDB
^G:\DEVELOPMENT\STORMLIB\SRC\LIBTOMMATH\BN_MP_DIV_3.C
G:\DEVELOPMENT\STORMLIB\BIN\STORMLIB\WIN32\DEBUGAD\STORMLIB.PDB
^G:\DEVELOPMENT\STORMLIB\SRC\LIBTOMMATH\BN_MP_DIV_D.C
G:\DEVELOPMENT\STORMLIB\BIN\STORMLIB\WIN32\DEBUGAD\STORMLIB.PDB
^G:\DEVELOPMENT\STORMLIB\SRC\LIBTOMMATH\BN_MP_DR_IS_MODULUS.C
G:\DEVELOPMENT\STORMLIB\BIN\STORMLIB\WIN32\DEBUGAD\STORMLIB.PDB
^G:\DEVELOPMENT\STORMLIB\SRC\LIBTOMMATH\BN_MP_DR_REDUCE.C
G:\DEVELOPMENT\STORMLIB\BIN\STORMLIB\WIN32\DEBUGAD\STORMLIB.PDB
^G:\DEVELOPMENT\STORMLIB\SRC\LIBTOMMATH\BN_MP_DR_SETUP.C
G:\DEVELOPMENT\STORMLIB\BIN\STORMLIB\WIN32\DEBUGAD\STORMLIB.PDB
^G:\DEVELOPMENT\STORMLIB\SRC\LIBTOMMATH\BN_MP_EXCH.C
G:\DEVELOPMENT\STORMLIB\BIN\STORMLIB\WIN32\DEBUGAD\STORMLIB.PDB
^G:\DEVELOPMENT\STORMLIB\SRC\LIBTOMMATH\BN_MP_EXPT_D.C
G:\DEVELOPMENT\STORMLIB\BIN\STORMLIB\WIN32\DEBUGAD\STORMLIB.PDB
^G:\DEVELOPMENT\STORMLIB\SRC\LIBTOMMATH\BN_MP_EXPTMOD.C
G:\DEVELOPMENT\STORMLIB\BIN\STORMLIB\WIN32\DEBUGAD\STORMLIB.PDB
^G:\DEVELOPMENT\STORMLIB\SRC\LIBTOMMATH\BN_MP_EXPTMOD_FAST.C
G:\DEVELOPMENT\STORMLIB\BIN\STORMLIB\WIN32\DEBUGAD\STORMLIB.PDB
^G:\DEVELOPMENT\STORMLIB\SRC\LIBTOMMATH\BN_MP_EXTEUCLID.C
G:\DEVELOPMENT\STORMLIB\BIN\STORMLIB\WIN32\DEBUGAD\STORMLIB.PDB
^G:\DEVELOPMENT\STORMLIB\SRC\LIBTOMMATH\BN_MP_FREAD.C
G:\DEVELOPMENT\STORMLIB\BIN\STORMLIB\WIN32\DEBUGAD\STORMLIB.PDB
^G:\DEVELOPMENT\STORMLIB\SRC\LIBTOMMATH\BN_MP_FWRITE.C
G:\DEVELOPMENT\STORMLIB\BIN\STORMLIB\WIN32\DEBUGAD\STORMLIB.PDB
^G:\DEVELOPMENT\STORMLIB\SRC\LIBTOMMATH\BN_MP_GCD.C
G:\DEVELOPMENT\STORMLIB\BIN\STORMLIB\WIN32\DEBUGAD\STORMLIB.PDB
^G:\DEVELOPMENT\STORMLIB\SRC\LIBTOMMATH\BN_MP_GET_INT.C
G:\DEVELOPMENT\STORMLIB\BIN\STORMLIB\WIN32\DEBUGAD\STORMLIB.PDB
^G:\DEVELOPMENT\STORMLIB\SRC\LIBTOMMATH\BN_MP_GROW.C
G:\DEVELOPMENT\STORMLIB\BIN\STORMLIB\WIN32\DEBUGAD\STORMLIB.PDB
^G:\DEVELOPMENT\STORMLIB\SRC\LIBTOMMATH\BN_MP_INIT.C
G:\DEVELOPMENT\STORMLIB\BIN\STORMLIB\WIN32\DEBUGAD\STORMLIB.PDB
^G:\DEVELOPMENT\STORMLIB\SRC\LIBTOMMATH\BN_MP_INIT_COPY.C
G:\DEVELOPMENT\STORMLIB\BIN\STORMLIB\WIN32\DEBUGAD\STORMLIB.PDB
^G:\DEVELOPMENT\STORMLIB\SRC\LIBTOMMATH\BN_MP_INIT_MULTI.C
G:\DEVELOPMENT\STORMLIB\BIN\STORMLIB\WIN32\DEBUGAD\STORMLIB.PDB
^G:\DEVELOPMENT\STORMLIB\SRC\LIBTOMMATH\BN_MP_INIT_SET.C
G:\DEVELOPMENT\STORMLIB\BIN\STORMLIB\WIN32\DEBUGAD\STORMLIB.PDB
^G:\DEVELOPMENT\STORMLIB\SRC\LIBTOMMATH\BN_MP_INIT_SET_INT.C
G:\DEVELOPMENT\STORMLIB\BIN\STORMLIB\WIN32\DEBUGAD\STORMLIB.PDB
^G:\DEVELOPMENT\STORMLIB\SRC\LIBTOMMATH\BN_MP_INIT_SIZE.C
G:\DEVELOPMENT\STORMLIB\BIN\STORMLIB\WIN32\DEBUGAD\STORMLIB.PDB
^G:\DEVELOPMENT\STORMLIB\SRC\LIBTOMMATH\BN_MP_INVMOD.C
G:\DEVELOPMENT\STORMLIB\BIN\STORMLIB\WIN32\DEBUGAD\STORMLIB.PDB
^G:\DEVELOPMENT\STORMLIB\SRC\LIBTOMMATH\BN_MP_INVMOD_SLOW.C
G:\DEVELOPMENT\STORMLIB\BIN\STORMLIB\WIN32\DEBUGAD\STORMLIB.PDB
^G:\DEVELOPMENT\STORMLIB\SRC\LIBTOMMATH\BN_MP_IS_SQUARE.C
G:\DEVELOPMENT\STORMLIB\BIN\STORMLIB\WIN32\DEBUGAD\STORMLIB.PDB
^G:\DEVELOPMENT\STORMLIB\SRC\LIBTOMMATH\BN_MP_JACOBI.C
G:\DEVELOPMENT\STORMLIB\BIN\STORMLIB\WIN32\DEBUGAD\STORMLIB.PDB
^G:\DEVELOPMENT\STORMLIB\SRC\LIBTOMMATH\BN_MP_KARATSUBA_MUL.C
G:\DEVELOPMENT\STORMLIB\BIN\STORMLIB\WIN32\DEBUGAD\STORMLIB.PDB
^G:\DEVELOPMENT\STORMLIB\SRC\LIBTOMMATH\BN_MP_KARATSUBA_SQR.C
G:\DEVELOPMENT\STORMLIB\BIN\STORMLIB\WIN32\DEBUGAD\STORMLIB.PDB
^G:\DEVELOPMENT\STORMLIB\SRC\LIBTOMMATH\BN_MP_LCM.C
G:\DEVELOPMENT\STORMLIB\BIN\STORMLIB\WIN32\DEBUGAD\STORMLIB.PDB
^G:\DEVELOPMENT\STORMLIB\SRC\LIBTOMMATH\BN_MP_LSHD.C
G:\DEVELOPMENT\STORMLIB\BIN\STORMLIB\WIN32\DEBUGAD\STORMLIB.PDB
^G:\DEVELOPMENT\STORMLIB\SRC\LIBTOMMATH\BN_MP_MOD.C
G:\DEVELOPMENT\STORMLIB\BIN\STORMLIB\WIN32\DEBUGAD\STORMLIB.PDB
^G:\DEVELOPMENT\STORMLIB\SRC\LIBTOMMATH\BN_MP_MOD_2D.C
G:\DEVELOPMENT\STORMLIB\BIN\STORMLIB\WIN32\DEBUGAD\STORMLIB.PDB
^G:\DEVELOPMENT\STORMLIB\SRC\LIBTOMMATH\BN_MP_MOD_D.C
G:\DEVELOPMENT\STORMLIB\BIN\STORMLIB\WIN32\DEBUGAD\STORMLIB.PDB
^G:\DEVELOPMENT\STORMLIB\SRC\LIBTOMMATH\BN_MP_MONTGOMERY_CALC_NORMALIZATION.C
G:\DEVELOPMENT\STORMLIB\BIN\STORMLIB\WIN32\DEBUGAD\STORMLIB.PDB
^G:\DEVELOPMENT\STORMLIB\SRC\LIBTOMMATH\BN_MP_MONTGOMERY_REDUCE.C
G:\DEVELOPMENT\STORMLIB\BIN\STORMLIB\WIN32\DEBUGAD\STORMLIB.PDB
^G:\DEVELOPMENT\STORMLIB\SRC\LIBTOMMATH\BN_MP_MONTGOMERY_SETUP.C
G:\DEVELOPMENT\STORMLIB\BIN\STORMLIB\WIN32\DEBUGAD\STORMLIB.PDB
^G:\DEVELOPMENT\STORMLIB\SRC\LIBTOMMATH\BN_MP_MUL.C
G:\DEVELOPMENT\STORMLIB\BIN\STORMLIB\WIN32\DEBUGAD\STORMLIB.PDB
^G:\DEVELOPMENT\STORMLIB\SRC\LIBTOMMATH\BN_MP_MUL_2.C
G:\DEVELOPMENT\STORMLIB\BIN\STORMLIB\WIN32\DEBUGAD\STORMLIB.PDB
^G:\DEVELOPMENT\STORMLIB\SRC\LIBTOMMATH\BN_MP_MUL_2D.C
G:\DEVELOPMENT\STORMLIB\BIN\STORMLIB\WIN32\DEBUGAD\STORMLIB.PDB
^G:\DEVELOPMENT\STORMLIB\SRC\LIBTOMMATH\BN_MP_MUL_D.C
G:\DEVELOPMENT\STORMLIB\BIN\STORMLIB\WIN32\DEBUGAD\STORMLIB.PDB
^G:\DEVELOPMENT\STORMLIB\SRC\LIBTOMMATH\BN_MP_MULMOD.C
G:\DEVELOPMENT\STORMLIB\BIN\STORMLIB\WIN32\DEBUGAD\STORMLIB.PDB
^G:\DEVELOPMENT\STORMLIB\SRC\LIBTOMMATH\BN_MP_N_ROOT.C
G:\DEVELOPMENT\STORMLIB\BIN\STORMLIB\WIN32\DEBUGAD\STORMLIB.PDB
^G:\DEVELOPMENT\STORMLIB\SRC\LIBTOMMATH\BN_MP_NEG.C
G:\DEVELOPMENT\STORMLIB\BIN\STORMLIB\WIN32\DEBUGAD\STORMLIB.PDB
^G:\DEVELOPMENT\STORMLIB\SRC\LIBTOMMATH\BN_MP_OR.C
G:\DEVELOPMENT\STORMLIB\BIN\STORMLIB\WIN32\DEBUGAD\STORMLIB.PDB
^G:\DEVELOPMENT\STORMLIB\SRC\LIBTOMMATH\BN_MP_PRIME_FERMAT.C
G:\DEVELOPMENT\STORMLIB\BIN\STORMLIB\WIN32\DEBUGAD\STORMLIB.PDB
^G:\DEVELOPMENT\STORMLIB\SRC\LIBTOMMATH\BN_MP_PRIME_IS_DIVISIBLE.C
G:\DEVELOPMENT\STORMLIB\BIN\STORMLIB\WIN32\DEBUGAD\STORMLIB.PDB
^G:\DEVELOPMENT\STORMLIB\SRC\LIBTOMMATH\BN_MP_PRIME_IS_PRIME.C
G:\DEVELOPMENT\STORMLIB\BIN\STORMLIB\WIN32\DEBUGAD\STORMLIB.PDB
^G:\DEVELOPMENT\STORMLIB\SRC\LIBTOMMATH\BN_MP_PRIME_MILLER_RABIN.C
G:\DEVELOPMENT\STORMLIB\BIN\STORMLIB\WIN32\DEBUGAD\STORMLIB.PDB
^G:\DEVELOPMENT\STORMLIB\SRC\LIBTOMMATH\BN_MP_PRIME_NEXT_PRIME.C
G:\DEVELOPMENT\STORMLIB\BIN\STORMLIB\WIN32\DEBUGAD\STORMLIB.PDB
^G:\DEVELOPMENT\STORMLIB\SRC\LIBTOMMATH\BN_MP_PRIME_RABIN_MILLER_TRIALS.C
G:\DEVELOPMENT\STORMLIB\BIN\STORMLIB\WIN32\DEBUGAD\STORMLIB.PDB
^G:\DEVELOPMENT\STORMLIB\SRC\LIBTOMMATH\BN_MP_PRIME_RANDOM_EX.C
G:\DEVELOPMENT\STORMLIB\BIN\STORMLIB\WIN32\DEBUGAD\STORMLIB.PDB
^G:\DEVELOPMENT\STORMLIB\SRC\LIBTOMMATH\BN_MP_RADIX_SIZE.C
G:\DEVELOPMENT\STORMLIB\BIN\STORMLIB\WIN32\DEBUGAD\STORMLIB.PDB
^G:\DEVELOPMENT\STORMLIB\SRC\LIBTOMMATH\BN_MP_RADIX_SMAP.C
G:\DEVELOPMENT\STORMLIB\BIN\STORMLIB\WIN32\DEBUGAD\STORMLIB.PDB
^G:\DEVELOPMENT\STORMLIB\SRC\LIBTOMMATH\BN_MP_RAND.C
G:\DEVELOPMENT\STORMLIB\BIN\STORMLIB\WIN32\DEBUGAD\STORMLIB.PDB
^G:\DEVELOPMENT\STORMLIB\SRC\LIBTOMMATH\BN_MP_READ_RADIX.C
G:\DEVELOPMENT\STORMLIB\BIN\STORMLIB\WIN32\DEBUGAD\STORMLIB.PDB
^G:\DEVELOPMENT\STORMLIB\SRC\LIBTOMMATH\BN_MP_READ_SIGNED_BIN.C
G:\DEVELOPMENT\STORMLIB\BIN\STORMLIB\WIN32\DEBUGAD\STORMLIB.PDB
^G:\DEVELOPMENT\STORMLIB\SRC\LIBTOMMATH\BN_MP_READ_UNSIGNED_BIN.C
G:\DEVELOPMENT\STORMLIB\BIN\STORMLIB\WIN32\DEBUGAD\STORMLIB.PDB
^G:\DEVELOPMENT\STORMLIB\SRC\LIBTOMMATH\BN_MP_REDUCE.C
G:\DEVELOPMENT\STORMLIB\BIN\STORMLIB\WIN32\DEBUGAD\STORMLIB.PDB
^G:\DEVELOPMENT\STORMLIB\SRC\LIBTOMMATH\BN_MP_REDUCE_2K.C
G:\DEVELOPMENT\STORMLIB\BIN\STORMLIB\WIN32\DEBUGAD\STORMLIB.PDB
^G:\DEVELOPMENT\STORMLIB\SRC\LIBTOMMATH\BN_MP_REDUCE_2K_L.C
G:\DEVELOPMENT\STORMLIB\BIN\STORMLIB\WIN32\DEBUGAD\STORMLIB.PDB
^G:\DEVELOPMENT\STORMLIB\SRC\LIBTOMMATH\BN_MP_REDUCE_2K_SETUP.C
G:\DEVELOPMENT\STORMLIB\BIN\STORMLIB\WIN32\DEBUGAD\STORMLIB.PDB
^G:\DEVELOPMENT\STORMLIB\SRC\LIBTOMMATH\BN_MP_REDUCE_2K_SETUP_L.C
G:\DEVELOPMENT\STORMLIB\BIN\STORMLIB\WIN32\DEBUGAD\STORMLIB.PDB
^G:\DEVELOPMENT\STORMLIB\SRC\LIBTOMMATH\BN_MP_REDUCE_IS_2K.C
G:\DEVELOPMENT\STORMLIB\BIN\STORMLIB\WIN32\DEBUGAD\STORMLIB.PDB
^G:\DEVELOPMENT\STORMLIB\SRC\LIBTOMMATH\BN_MP_REDUCE_IS_2K_L.C
G:\DEVELOPMENT\STORMLIB\BIN\STORMLIB\WIN32\DEBUGAD\STORMLIB.PDB
^G:\DEVELOPMENT\STORMLIB\SRC\LIBTOMMATH\BN_MP_REDUCE_SETUP.C
G:\DEVELOPMENT\STORMLIB\BIN\STORMLIB\WIN32\DEBUGAD\STORMLIB.PDB
^G:\DEVELOPMENT\STORMLIB\SRC\LIBTOMMATH\BN_MP_RSHD.C
G:\DEVELOPMENT\STORMLIB\BIN\STORMLIB\WIN32\DEBUGAD\STORMLIB.PDB
^G:\DEVELOPMENT\STORMLIB\SRC\LIBTOMMATH\BN_MP_SET.C
G:\DEVELOPMENT\STORMLIB\BIN\STORMLIB\WIN32\DEBUGAD\STORMLIB.PDB
^G:\DEVELOPMENT\STORMLIB\SRC\LIBTOMMATH\BN_MP_SET_INT.C
G:\DEVELOPMENT\STORMLIB\BIN\STORMLIB\WIN32\DEBUGAD\STORMLIB.PDB
^G:\DEVELOPMENT\STORMLIB\SRC\LIBTOMMATH\BN_MP_SHRINK.C
G:\DEVELOPMENT\STORMLIB\BIN\STORMLIB\WIN32\DEBUGAD\STORMLIB.PDB
^G:\DEVELOPMENT\STORMLIB\SRC\LIBTOMMATH\BN_MP_SIGNED_BIN_SIZE.C
G:\DEVELOPMENT\STORMLIB\BIN\STORMLIB\WIN32\DEBUGAD\STORMLIB.PDB
^G:\DEVELOPMENT\STORMLIB\SRC\LIBTOMMATH\BN_MP_SQR.C
G:\DEVELOPMENT\STORMLIB\BIN\STORMLIB\WIN32\DEBUGAD\STORMLIB.PDB
^G:\DEVELOPMENT\STORMLIB\SRC\LIBTOMMATH\BN_MP_SQRMOD.C
G:\DEVELOPMENT\STORMLIB\BIN\STORMLIB\WIN32\DEBUGAD\STORMLIB.PDB
^G:\DEVELOPMENT\STORMLIB\SRC\LIBTOMMATH\BN_MP_SQRT.C
G:\DEVELOPMENT\STORMLIB\BIN\STORMLIB\WIN32\DEBUGAD\STORMLIB.PDB
^G:\DEVELOPMENT\STORMLIB\SRC\LIBTOMMATH\BN_MP_SUB.C
G:\DEVELOPMENT\STORMLIB\BIN\STORMLIB\WIN32\DEBUGAD\STORMLIB.PDB
^G:\DEVELOPMENT\STORMLIB\SRC\LIBTOMMATH\BN_MP_SUB_D.C
G:\DEVELOPMENT\STORMLIB\BIN\STORMLIB\WIN32\DEBUGAD\STORMLIB.PDB
^G:\DEVELOPMENT\STORMLIB\SRC\LIBTOMMATH\BN_MP_SUBMOD.C
G:\DEVELOPMENT\STORMLIB\BIN\STORMLIB\WIN32\DEBUGAD\STORMLIB.PDB
^G:\DEVELOPMENT\STORMLIB\SRC\LIBTOMMATH\BN_MP_TO_SIGNED_BIN.C
G:\DEVELOPMENT\STORMLIB\BIN\STORMLIB\WIN32\DEBUGAD\STORMLIB.PDB
^G:\DEVELOPMENT\STORMLIB\SRC\LIBTOMMATH\BN_MP_TO_SIGNED_BIN_N.C
G:\DEVELOPMENT\STORMLIB\BIN\STORMLIB\WIN32\DEBUGAD\STORMLIB.PDB
^G:\DEVELOPMENT\STORMLIB\SRC\LIBTOMMATH\BN_MP_TO_UNSIGNED_BIN.C
G:\DEVELOPMENT\STORMLIB\BIN\STORMLIB\WIN32\DEBUGAD\STORMLIB.PDB
^G:\DEVELOPMENT\STORMLIB\SRC\LIBTOMMATH\BN_MP_TO_UNSIGNED_BIN_N.C
G:\DEVELOPMENT\STORMLIB\BIN\STORMLIB\WIN32\DEBUGAD\STORMLIB.PDB
^G:\DEVELOPMENT\STORMLIB\SRC\LIBTOMMATH\BN_MP_TOOM_MUL.C
G:\DEVELOPMENT\STORMLIB\BIN\STORMLIB\WIN32\DEBUGAD\STORMLIB.PDB
^G:\DEVELOPMENT\STORMLIB\SRC\LIBTOMMATH\BN_MP_TOOM_SQR.C
G:\DEVELOPMENT\STORMLIB\BIN\STORMLIB\WIN32\DEBUGAD\STORMLIB.PDB
^G:\DEVELOPMENT\STORMLIB\SRC\LIBTOMMATH\BN_MP_TORADIX.C
G:\DEVELOPMENT\STORMLIB\BIN\STORMLIB\WIN32\DEBUGAD\STORMLIB.PDB
^G:\DEVELOPMENT\STORMLIB\SRC\LIBTOMMATH\BN_MP_TORADIX_N.C
G:\DEVELOPMENT\STORMLIB\BIN\STORMLIB\WIN32\DEBUGAD\STORMLIB.PDB
^G:\DEVELOPMENT\STORMLIB\SRC\LIBTOMMATH\BN_MP_UNSIGNED_BIN_SIZE.C
G:\DEVELOPMENT\STORMLIB\BIN\STORMLIB\WIN32\DEBUGAD\STORMLIB.PDB
^G:\DEVELOPMENT\STORMLIB\SRC\LIBTOMMATH\BN_MP_XOR.C
G:\DEVELOPMENT\STORMLIB\BIN\STORMLIB\WIN32\DEBUGAD\STORMLIB.PDB
^G:\DEVELOPMENT\STORMLIB\SRC\LIBTOMMATH\BN_MP_ZERO.C
G:\DEVELOPMENT\STORMLIB\BIN\STORMLIB\WIN32\DEBUGAD\STORMLIB.PDB
^G:\DEVELOPMENT\STORMLIB\SRC\LIBTOMMATH\BN_PRIME_TAB.C
G:\DEVELOPMENT\STORMLIB\BIN\STORMLIB\WIN32\DEBUGAD\STORMLIB.PDB
^G:\DEVELOPMENT\STORMLIB\SRC\LIBTOMMATH\BN_REVERSE.C
G:\DEVELOPMENT\STORMLIB\BIN\STORMLIB\WIN32\DEBUGAD\STORMLIB.PDB
^G:\DEVELOPMENT\STORMLIB\SRC\LIBTOMMATH\BN_S_MP_ADD.C
G:\DEVELOPMENT\STORMLIB\BIN\STORMLIB\WIN32\DEBUGAD\STORMLIB.PDB
^G:\DEVELOPMENT\STORMLIB\SRC\LIBTOMMATH\BN_S_MP_EXPTMOD.C
G:\DEVELOPMENT\STORMLIB\BIN\STORMLIB\WIN32\DEBUGAD\STORMLIB.PDB
^G:\DEVELOPMENT\STORMLIB\SRC\LIBTOMMATH\BN_S_MP_MUL_DIGS.C
G:\DEVELOPMENT\STORMLIB\BIN\STORMLIB\WIN32\DEBUGAD\STORMLIB.PDB
^G:\DEVELOPMENT\STORMLIB\SRC\LIBTOMMATH\BN_S_MP_MUL_HIGH_DIGS.C
G:\DEVELOPMENT\STORMLIB\BIN\STORMLIB\WIN32\DEBUGAD\STORMLIB.PDB
^G:\DEVELOPMENT\STORMLIB\SRC\LIBTOMMATH\BN_S_MP_SQR.C
G:\DEVELOPMENT\STORMLIB\BIN\STORMLIB\WIN32\DEBUGAD\STORMLIB.PDB
^G:\DEVELOPMENT\STORMLIB\SRC\LIBTOMMATH\BN_S_MP_SUB.C
G:\DEVELOPMENT\STORMLIB\BIN\STORMLIB\WIN32\DEBUGAD\STORMLIB.PDB
^G:\DEVELOPMENT\STORMLIB\SRC\LIBTOMMATH\BNCORE.C
G:\DEVELOPMENT\STORMLIB\BIN\STORMLIB\WIN32\DEBUGAD\STORMLIB.PDB
^G:\DEVELOPMENT\STORMLIB\SRC\LZMA\C\LZFIND.C
G:\DEVELOPMENT\STORMLIB\BIN\STORMLIB\WIN32\DEBUGAD\STORMLIB.PDB
^G:\DEVELOPMENT\STORMLIB\SRC\LZMA\C\LZFINDMT.C
G:\DEVELOPMENT\STORMLIB\BIN\STORMLIB\WIN32\DEBUGAD\STORMLIB.PDB
^G:\DEVELOPMENT\STORMLIB\SRC\LZMA\C\LZMADEC.C
G:\DEVELOPMENT\STORMLIB\BIN\STORMLIB\WIN32\DEBUGAD\STORMLIB.PDB
^G:\DEVELOPMENT\STORMLIB\SRC\LZMA\C\LZMAENC.C
G:\DEVELOPMENT\STORMLIB\BIN\STORMLIB\WIN32\DEBUGAD\STORMLIB.PDB
^G:\DEVELOPMENT\STORMLIB\SRC\LZMA\C\THREADS.C
G:\DEVELOPMENT\STORMLIB\BIN\STORMLIB\WIN32\DEBUGAD\STORMLIB.PDB
^G:\DEVELOPMENT\STORMLIB\SRC\PKLIB\EXPLODE.C
G:\DEVELOPMENT\STORMLIB\BIN\STORMLIB\WIN32\DEBUGAD\STORMLIB.PDB
^G:\DEVELOPMENT\STORMLIB\SRC\PKLIB\IMPLODE.C
G:\DEVELOPMENT\STORMLIB\BIN\STORMLIB\WIN32\DEBUGAD\STORMLIB.PDB
^G:\DEVELOPMENT\STORMLIB\SRC\ZLIB\ADLER32.C
G:\DEVELOPMENT\STORMLIB\BIN\STORMLIB\WIN32\DEBUGAD\STORMLIB.PDB
^G:\DEVELOPMENT\STORMLIB\SRC\ZLIB\COMPRESS_ZLIB.C
G:\DEVELOPMENT\STORMLIB\BIN\STORMLIB\WIN32\DEBUGAD\STORMLIB.PDB
^G:\DEVELOPMENT\STORMLIB\SRC\ZLIB\CRC32.C
G:\DEVELOPMENT\STORMLIB\BIN\STORMLIB\WIN32\DEBUGAD\STORMLIB.PDB
^G:\DEVELOPMENT\STORMLIB\SRC\ZLIB\DEFLATE.C
G:\DEVELOPMENT\STORMLIB\BIN\STORMLIB\WIN32\DEBUGAD\STORMLIB.PDB
^G:\DEVELOPMENT\STORMLIB\SRC\ZLIB\INFFAST.C
G:\DEVELOPMENT\STORMLIB\BIN\STORMLIB\WIN32\DEBUGAD\STORMLIB.PDB
^G:\DEVELOPMENT\STORMLIB\SRC\ZLIB\INFLATE.C
G:\DEVELOPMENT\STORMLIB\BIN\STORMLIB\WIN32\DEBUGAD\STORMLIB.PDB
^G:\DEVELOPMENT\STORMLIB\SRC\ZLIB\INFTREES.C
G:\DEVELOPMENT\STORMLIB\BIN\STORMLIB\WIN32\DEBUGAD\STORMLIB.PDB
^G:\DEVELOPMENT\STORMLIB\SRC\ZLIB\TREES.C
G:\DEVELOPMENT\STORMLIB\BIN\STORMLIB\WIN32\DEBUGAD\STORMLIB.PDB
^G:\DEVELOPMENT\STORMLIB\SRC\ZLIB\ZUTIL.C
G:\DEVELOPMENT\STORMLIB\BIN\STORMLIB\WIN32\DEBUGAD\STORMLIB.PDB
^G:\DEVELOPMENT\STORMLIB\SRC\JENKINS\LOOKUP3.C
G:\DEVELOPMENT\STORMLIB\BIN\STORMLIB\WIN32\DEBUGAD\STORMLIB.PDB
^G:\DEVELOPMENT\STORMLIB\SRC\ADPCM\ADPCM.CPP|G:\DEVELOPMENT\STORMLIB\SRC\HUFFMAN\HUFF.CPP|G:\DEVELOPMENT\STORMLIB\SRC\SBASESUBTYPES.CPP|G:\DEVELOPMENT\STORMLIB\SRC\SPARSE\SPARSE.CPP
G:\DEVELOPMENT\STORMLIB\BIN\STORMLIB\WIN32\DEBUGAD\STORMLIB.PDB
G:\DEVELOPMENT\STORMLIB\BIN\STORMLIB\WIN32\DEBUGAD\SPARSE.OBJ
G:\DEVELOPMENT\STORMLIB\BIN\STORMLIB\WIN32\DEBUGAD\HUFF.OBJ
G:\DEVELOPMENT\STORMLIB\BIN\STORMLIB\WIN32\DEBUGAD\ADPCM.OBJ
G:\DEVELOPMENT\STORMLIB\BIN\STORMLIB\WIN32\DEBUGAD\SBASESUBTYPES.OBJ
^G:\DEVELOPMENT\STORMLIB\SRC\SBASESUBTYPES.CPP
G:\DEVELOPMENT\STORMLIB\BIN\STORMLIB\WIN32\DEBUGAD\STORMLIB.PDB
^G:\DEVELOPMENT\STORMLIB\SRC\ADPCM\ADPCM.CPP
G:\DEVELOPMENT\STORMLIB\BIN\STORMLIB\WIN32\DEBUGAD\STORMLIB.PDB
^G:\DEVELOPMENT\STORMLIB\SRC\HUFFMAN\HUFF.CPP
G:\DEVELOPMENT\STORMLIB\BIN\STORMLIB\WIN32\DEBUGAD\STORMLIB.PDB
^G:\DEVELOPMENT\STORMLIB\SRC\SPARSE\SPARSE.CPP
G:\DEVELOPMENT\STORMLIB\BIN\STORMLIB\WIN32\DEBUGAD\STORMLIB.PDB
