"libs\date_time\src\gregorian\greg_weekday.cpp" -Fo"bin.v2\libs\date_time\build\msvc-14.0\release\link-static\runtime-link-static\threading-multi\gregorian\greg_weekday.obj"    -TP /O2 /Ob2 /W3 /GR /MT /Zc:forScope /Zc:wchar_t /wd4675 /EHs -c 
-DBOOST_ALL_NO_LIB=1 
-DBOOST_DATE_TIME_STATIC_LINK 
-DDATE_TIME_INLINE 
-DNDEBUG 
"-I."