"libs\program_options\src\utf8_codecvt_facet.cpp" -Fo"bin.v2\libs\program_options\build\msvc-14.0\release\threading-multi\utf8_codecvt_facet.obj"    -TP /O2 /Ob2 /W3 /GR /MD /Zc:forScope /Zc:wchar_t /wd4675 /EHs -c 
-DBOOST_ALL_NO_LIB=1 
-DBOOST_PROGRAM_OPTIONS_DYN_LINK=1 
-DNDEBUG 
"-I."