"libs\log\src\code_conversion.cpp" -Fo"bin.v2\libs\log\build\msvc-12.0\dbg\lnk-sttc\log-api-wnt\rntm-lnk-sttc\code_conversion.obj"    -TP /Z7 /Od /Ob0 /W3 /GR /Zc:forScope /Zc:wchar_t /MTd /wd4675 /EHs /bigobj /wd4456 /wd4459 /wd4503 -c 
-DBOOST_ALL_NO_LIB=1 
-DBOOST_FILESYSTEM_STATIC_LINK=1 
-DBOOST_LOG_BUILDING_THE_LIB=1 
-DBOOST_LOG_NO_THREADS 
-DBOOST_LOG_USE_AVX2 
-DBOOST_LOG_USE_SSSE3 
-DBOOST_SPIRIT_USE_PHOENIX_V3=1 
-DBOOST_SYSTEM_STATIC_LINK=1 
-DBOOST_THREAD_DONT_USE_CHRONO=1 
-DDATE_TIME_INLINE 
-D_CRT_SECURE_NO_DEPRECATE 
-D_CRT_SECURE_NO_WARNINGS 
-D_SCL_SECURE_NO_DEPRECATE 
-D_SCL_SECURE_NO_WARNINGS 
"-I." 
"-Ibin.v2\libs\log\build\msvc-12.0\dbg\lnk-sttc\log-api-wnt\rntm-lnk-sttc"