"libs\signals\src\connection.cpp" -Fo"bin.v2\libs\signals\build\msvc-14.0\debug\link-static\runtime-link-static\threading-multi\connection.obj"    -TP /Z7 /Od /Ob0 /W3 /GR /MTd /Zc:forScope /Zc:wchar_t /wd4675 /EHs -c 
-DBOOST_ALL_NO_LIB=1 
-DBOOST_SIGNALS_NO_LIB=1 
"-I."