"libs\coroutine\src\detail\coroutine_context.cpp" -Fo"bin.v2\libs\coroutine\build\msvc-12.0\rls\lnk-sttc\thrd-mlt\detail\coroutine_context.obj"    -TP /O2 /Ob2 /W3 /GR /MD /Zc:forScope /Zc:wchar_t /wd4675 /EHs -c 
-DBOOST_ALL_NO_LIB=1 
-DBOOST_CHRONO_STATIC_LINK=1 
-DBOOST_COROUTINES_SOURCE 
-DBOOST_SYSTEM_NO_DEPRECATED 
-DBOOST_SYSTEM_STATIC_LINK=1 
-DBOOST_THREAD_BUILD_LIB=1 
-DBOOST_THREAD_USE_LIB=1 
-DNDEBUG 
"-I."