
"bin.v2\libs\date_time\build\msvc-14.0\release\threading-multi\gregorian\greg_month.obj" 
"bin.v2\libs\date_time\build\msvc-14.0\release\threading-multi\gregorian\greg_weekday.obj" 
"bin.v2\libs\date_time\build\msvc-14.0\release\threading-multi\gregorian\date_generators.obj"    