"libs\test\src\unit_test_suite.cpp" -Fo"bin.v2\libs\test\build\msvc-12.0\dbg\async-excpt-on\thrd-mlt\unit_test_suite.obj"    -TP /Z7 /Od /Ob0 /W4 /GR /MDd /Zc:forScope /Zc:wchar_t /wd4675 /EHa -wd4275 -wd4671 -wd4673 -c 
-DBOOST_ALL_NO_LIB=1 
-DBOOST_TEST_DYN_LINK=1 
"-I."