"libs\filesystem\src\codecvt_error_category.cpp" -Fo"bin.v2\libs\filesystem\build\msvc-12.0\rls\thrd-mlt\codecvt_error_category.obj"    -TP /O2 /Ob2 /W3 /GR /MD /Zc:forScope /Zc:wchar_t /wd4675 /EHs -c 
-DBOOST_ALL_NO_LIB=1 
-DBOOST_FILESYSTEM_DYN_LINK=1 
-DBOOST_SYSTEM_DYN_LINK=1 
-DNDEBUG 
"-I."