"libs\date_time\src\gregorian\greg_month.cpp" -Fo"bin.v2\libs\date_time\build\msvc-12.0\dbg\lnk-sttc\thrd-mlt\gregorian\greg_month.obj"    -TP /Z7 /Od /Ob0 /W3 /GR /MDd /Zc:forScope /Zc:wchar_t /wd4675 /EHs -c 
-DBOOST_ALL_NO_LIB=1 
-DBOOST_DATE_TIME_STATIC_LINK 
-DDATE_TIME_INLINE 
"-I."