"libs\program_options\src\positional_options.cpp" -Fo"bin.v2\libs\program_options\build\msvc-12.0\dbg\thrd-mlt\positional_options.obj"    -TP /Z7 /Od /Ob0 /W3 /GR /MDd /Zc:forScope /Zc:wchar_t /wd4675 /EHs -c 
-DBOOST_ALL_NO_LIB=1 
-DBOOST_PROGRAM_OPTIONS_DYN_LINK=1 
"-I."