"libs\regex\build\..\src\w32_regex_traits.cpp" -Fo"bin.v2\libs\regex\build\msvc-12.0\dbg\thrd-mlt\w32_regex_traits.obj"    -TP /Z7 /Od /Ob0 /W4 /GR /MDd /Zc:forScope /Zc:wchar_t /wd4675 /EHs -c 
-DBOOST_ALL_NO_LIB=1 
-DBOOST_REGEX_DYN_LINK=1 
"-I."