"libs\thread\src\win32\thread.cpp" -Fo"bin.v2\libs\thread\build\msvc-14.0\debug\link-static\runtime-link-static\threading-multi\win32\thread.obj"    -TP /Z7 /Od /Ob0 /W4 /GR /MTd /Zc:forScope /Zc:wchar_t /wd4675 /EHs /wd4100 /wd4512 /wd6246 -c 
-DBOOST_ALL_NO_LIB=1 
-DBOOST_CHRONO_STATIC_LINK=1 
-DBOOST_SYSTEM_NO_DEPRECATED 
-DBOOST_SYSTEM_STATIC_LINK=1 
-DBOOST_THREAD_BUILD_LIB=1 
-DBOOST_THREAD_USES_CHRONO 
"-I."